
-----
39.4761 #0
-----

-----
52.9808 #1
-----

-----
37.1476 #2
-----

-----
43.1318 #3
-----
484.375 -38.3237 30.8913%
500 -36.5059 38.4652%
515.625 -38.6037 30.7786%

-----
47.4622 #4
-----
593.75 -38.9246 39.1652%
609.375 -37.7018 42.1677%

-----
52.6433 #5
-----
703.125 -40.6144 30.7604%
2562.5 -41.2122 31.93%

-----
61.0409 #6
-----
343.75 -34.5234 35.4376%
703.125 -37.4326 42.304%

-----
53.1743 #7
-----
687.5 -38.9654 34.8054%
703.125 -37.9925 38.6508%
1046.88 -41.159 36.6168%

-----
50.4301 #8
-----

-----
58.487 #9
-----

-----
63.9221 #10
-----
343.75 -33.9632 34.3489%
359.375 -34.9206 32.939%
2453.12 -35.3536 45.4563%

-----
60.3025 #11
-----
343.75 -33.7404 34.9008%
359.375 -35.4308 30.6999%

-----
54.7599 #12
-----
703.125 -39.449 30.9155%
2093.75 -42.6199 31.3341%
2109.38 -42.3983 30.8932%
2437.5 -38.7427 32.0548%
3125 -42.2017 34.1541%
3140.62 -41.9762 34.3524%

-----
46.5998 #13
-----

-----
59.7646 #14
-----
359.375 -34.552 30.6208%
1046.88 -39.8772 38.6442%
1390.62 -43.0499 32.58%
1406.25 -43.1208 32.6378%
2796.88 -39.3096 36.0667%

-----
47.8011 #15
-----

-----
43.0129 #16
-----

-----
53.9357 #17
-----
500 -37.8212 32.1354%
562.5 -38.7902 33.5898%
703.125 -36.0904 38.3959%
1984.38 -43.5647 33.134%

-----
60.7501 #18
-----

-----
53.9065 #19
-----
703.125 -37.1427 35.0518%

-----
59.4273 #20
-----
687.5 -35.1013 42.425%
703.125 -32.8744 51.3458%

-----
66.6447 #21
-----
343.75 -31.0507 39.165%
359.375 -32.7606 34.5603%

-----
53.021 #22
-----
343.75 -32.3325 34.1446%

-----
48.0411 #23
-----

-----
47.5814 #24
-----

-----
43.7883 #25
-----
703.125 -35.9625 38.195%
2796.88 -40.346 34.0064%

-----
61.2808 #26
-----
687.5 -33.2056 51.3988%
703.125 -32.178 54.8871%
1046.88 -39.6745 37.1843%

-----
43.4971 #27
-----
687.5 -36.6796 36.9525%
703.125 -36.4201 36.5118%

-----
47.4939 #28
-----
1390.62 -43.1515 30.7136%

-----
56.1333 #29
-----
390.625 -33.5771 36.9962%

-----
56.7832 #30
-----
390.625 -35.2565 30.1891%
2750 -40.0172 31.2085%

-----
47.7143 #31
-----

-----
48.1206 #32
-----
390.625 -34.4212 33.3561%
781.25 -38.3037 34.1182%

-----
55.4939 #33
-----
781.25 -34.992 46.9881%
796.875 -39.1341 31.5181%
2359.38 -38.3826 33.9058%

-----
54.6003 #34
-----

-----
56.7723 #35
-----
390.625 -31.5506 45.1052%
515.625 -39.5427 30.4999%
531.25 -39.3716 31.2667%
781.25 -35.6049 43.5531%
796.875 -37.1257 38.2118%

-----
61.9561 #36
-----

-----
58.3243 #37
-----
390.625 -34.4749 32.0614%

-----
52.2074 #38
-----
343.75 -32.9205 31.0647%

-----
39.4698 #39
-----
343.75 -31.6699 35.0212%
1515.62 -44.8849 31.0675%
1562.5 -44.9759 30.7788%

-----
51.5112 #40
-----
781.25 -34.0883 48.4573%
796.875 -38.9761 31.0173%

-----
44.6894 #41
-----
2906.25 -43.184 31.3888%

-----
60.9638 #42
-----
390.625 -30.1104 49.0263%

-----
55.4693 #43
-----
390.625 -33.2904 35.8112%

-----
65.8363 #44
-----
390.625 -29.2444 54.976%
406.25 -34.5506 32.111%
781.25 -32.2921 57.5455%
796.875 -36.3291 41.6774%

-----
64.6249 #45
-----
390.625 -28.8426 57.4026%
406.25 -34.8289 31.5669%
781.25 -34.8392 45.6085%
796.875 -38.3475 33.9942%

-----
53.0534 #46
-----
390.625 -33.2251 36.3217%

-----
58.9916 #47
-----
781.25 -35.0999 43.9479%

-----
60.8984 #48
-----
781.25 -34.8611 44.8358%

-----
57.708 #49
-----

-----
37.6339 #50
-----
515.625 -40.6017 31.1698%
1843.75 -42.4042 33.8761%
1937.5 -42.8547 32.0952%
1953.12 -43.6051 30.0317%
2218.75 -42.4765 30.2548%

-----
56.1254 #51
-----
390.625 -31.7273 44.5313%

-----
62.2759 #52
-----
781.25 -34.5744 46.8035%
796.875 -38.0565 35.8499%

-----
57.6503 #53
-----
703.125 -37.5845 30.3665%

-----
51.3513 #54
-----
781.25 -36.2997 38.0679%
2343.75 -37.9665 34.2946%
2359.38 -36.6239 38.7552%

-----
52.6601 #55
-----
781.25 -37.1666 33.3516%

-----
63.1444 #56
-----
343.75 -32.4123 33.2708%
781.25 -35.2323 42.1585%

-----
50.2926 #57
-----
343.75 -32.5445 33.3724%
390.625 -33.713 30.9745%
703.125 -37.2349 32.9418%

-----
56.1791 #58
-----
390.625 -29.9465 47.4482%
406.25 -32.6077 36.6881%
703.125 -37.1936 34.0663%
1046.88 -39.3651 38.0057%
2359.38 -39.7609 31.0592%
2750 -40.5074 30.7832%

-----
55.8953 #59
-----

-----
54.5259 #60
-----
781.25 -37.6936 32.7693%

-----
41.9384 #61
-----

-----
50.991 #62
-----
390.625 -33.5338 32.9357%

-----
45.7033 #63
-----
390.625 -32.1123 39.8729%

-----
44.2582 #64
-----
390.625 -34.2633 32.4825%
781.25 -37.8879 35.3411%
796.875 -38.2453 35.8616%
2671.88 -38.7152 31.4966%

-----
52.2048 #65
-----
531.25 -37.9106 32.127%
1796.88 -41.4278 33.9336%
1921.88 -41.5903 33.5583%
1937.5 -41.0333 35.9078%
2093.75 -41.9575 30.9889%
2531.25 -37.0689 36.6745%
2546.88 -38.3028 32.6811%
2656.25 -36.5348 40.1099%
2671.88 -36.684 39.5144%
2765.62 -39.1211 32.5502%
2781.25 -36.4436 43.7857%
2796.88 -35.5303 48.5936%
2812.5 -40.3384 31.5684%

-----
55.6451 #66
-----

-----
50.8846 #67
-----
1750 -43.1614 30.0886%

-----
49.5239 #68
-----
343.75 -30.2365 48.9445%
359.375 -31.3555 46.1232%
1750 -41.9512 33.7047%

-----
52.9521 #69
-----
343.75 -32.9962 36.5057%
687.5 -38.7211 30.1497%
703.125 -38.1495 32.3918%

-----
45.1122 #70
-----
343.75 -29.2058 54.5373%
359.375 -31.2562 47.1392%
703.125 -38.6513 31.2893%

-----
56.1901 #71
-----
343.75 -30.7637 45.2218%
359.375 -33.9316 34.3704%

-----
54.421 #72
-----
343.75 -33.2733 32.6556%

-----
65.0978 #73
-----
343.75 -28.2701 54.7118%
359.375 -30.3115 47.5003%

-----
59.4794 #74
-----
343.75 -28.6944 52.4407%
359.375 -29.1673 52.8424%
687.5 -36.7791 36.4718%
703.125 -35.1714 43.2505%

-----
51.6598 #75
-----
343.75 -26.6744 63.9552%
359.375 -28.4684 56.0067%

-----
43.8859 #76
-----
500 -33.6418 51.3481%
515.625 -35.3662 45.7805%
1562.5 -43.8845 30.8492%
1812.5 -41.6694 33.4039%
2109.38 -42.8477 30.766%
2234.38 -41.0986 31.8428%
3140.62 -41.882 33.6067%

-----
48.9453 #77
-----
312.5 -32.1961 38.2059%
828.125 -37.7401 37.5168%
2484.38 -36.7585 38.0272%
2500 -38.367 31.5902%
2750 -40.9284 30.223%
2906.25 -39.8518 38.7662%

-----
47.343 #78
-----
406.25 -34.1807 32.141%
421.875 -34.3032 33.4394%

-----
49.3593 #79
-----
2500 -36.0188 39.2194%

-----
53.3188 #80
-----
406.25 -33.0938 37.5939%
421.875 -31.4574 46.3382%

-----
54.8737 #81
-----
406.25 -31.6448 44.5852%
421.875 -29.6413 55.5581%
1250 -41.2465 33.687%

-----
51.6793 #82
-----

-----
50.0947 #83
-----

-----
42.817 #84
-----
421.875 -33.1673 38.4905%
2500 -37.94 32.005%

-----
52.1031 #85
-----

-----
45.9525 #86
-----

-----
40.8901 #87
-----
343.75 -31.6315 39.433%
359.375 -34.2591 30.1144%
1625 -42.5943 33.041%
1640.62 -42.3147 33.177%
1843.75 -41.1784 35.2292%
1859.38 -40.9992 35.6402%
1921.88 -42.3449 31.8518%
3281.25 -39.8369 39.5033%
3296.88 -38.7747 42.1697%
3312.5 -39.9408 37.4183%
3328.12 -41.8249 30.6056%
3375 -41.4633 31.0195%
3390.62 -41.4277 31.621%
3406.25 -40.4532 34.8551%
3703.12 -42.1264 30.3055%

-----
53.6632 #88
-----
2500 -37.5341 34.5159%

-----
49.7051 #89
-----

-----
59.8888 #90
-----

-----
43.9402 #91
-----
343.75 -34.0167 31.4004%
515.625 -31.6325 51.3366%
531.25 -31.9627 51.5805%

-----
57.9052 #92
-----
515.625 -34.2922 38.8204%
531.25 -35.1542 37.3642%
875 -39.9354 31.0299%
1406.25 -44.5228 32.5822%

-----
50.8295 #93
-----
515.625 -36.151 30.2062%

-----
60.219 #94
-----
515.625 -33.3167 39.8935%
531.25 -32.8066 44.9402%
1046.88 -40.9964 30.1294%

-----
54.0335 #95
-----
515.625 -31.6949 47.1808%
531.25 -31.4225 51.3454%

-----
73.4684 #96
-----
515.625 -31.7205 47.0465%
531.25 -33.5755 41.8535%
2453.12 -40.2361 34.3074%

-----
65.0172 #97
-----
343.75 -34.3507 30.7419%
515.625 -33.1905 40.229%
531.25 -36.3727 30.8062%
1046.88 -40.316 32.9252%
2625 -39.195 30.7185%

-----
48.2457 #98
-----
343.75 -32.3804 39.1245%
359.375 -32.7152 37.6261%
437.5 -34.3356 32.3673%
515.625 -34.8724 33.9122%
859.375 -40.3083 30.1595%
1046.88 -40.6321 32.0305%
1578.12 -44.4419 31.1095%
1656.25 -42.8632 34.316%
2609.38 -39.7807 30.4207%
2625 -39.0251 31.7396%
3312.5 -41.7045 36.5781%
3328.12 -42.15 33.5148%

-----
53.1923 #99
-----
1390.62 -43.7684 32.2117%
1406.25 -43.7454 33.4713%
3328.12 -43.4977 30.627%

-----
58.4936 #100
-----
1390.62 -44.2605 31.7406%
2609.38 -39.4565 32.8782%

-----
60.0807 #101
-----
2906.25 -43.6372 31.3868%
2921.88 -44.0514 30.206%
3328.12 -43.5974 31.0054%

-----
49.8082 #102
-----

-----
53.8985 #103
-----
515.625 -34.544 34.9827%
2281.25 -41.2209 30.5472%

-----
51.2292 #104
-----

-----
59.9847 #105
-----
515.625 -35.0482 34.1108%
687.5 -39.2352 31.5241%
703.125 -38.2772 35.1531%
2437.5 -40.931 30.0674%

-----
54.6031 #106
-----
515.625 -32.0929 46.2292%
531.25 -32.3176 47.1153%
703.125 -38.4633 35.3144%

-----
49.3086 #107
-----
515.625 -30.0583 54.7258%
531.25 -29.399 60.6208%

-----
51.3068 #108
-----
515.625 -29.2667 58.09%
531.25 -30.5843 54.5518%

-----
44.8928 #109
-----
312.5 -32.1153 41.471%
328.125 -33.4236 36.5957%
515.625 -34.1545 34.9059%
875 -40.3893 31.1959%
1656.25 -41.8788 35.3413%
1671.88 -43.6367 30.3625%
2281.25 -41.6129 30.4406%
2796.88 -41.6419 31.7701%

-----
56.5216 #110
-----
1562.5 -42.972 30.9444%
1578.12 -42.5728 31.3154%

-----
51.1154 #111
-----
515.625 -34.1532 34.2197%
1562.5 -42.3213 32.7888%

-----
52.2793 #112
-----
515.625 -34.2108 34.7028%
531.25 -33.1448 42.2179%
1046.88 -38.9666 37.6624%

-----
51.5102 #113
-----
515.625 -34.908 32.9014%
531.25 -33.0566 43.5728%
1046.88 -38.1904 41.0019%
3671.88 -41.4159 32.7837%

-----
51.3008 #114
-----
515.625 -29.6006 58.5895%
531.25 -29.8437 61.01%
703.125 -40.2768 30.8273%
3671.88 -41.476 33.4858%
3687.5 -41.8529 32.2355%

-----
59.978 #115
-----
515.625 -30.3096 56.1084%
531.25 -31.8854 51.9948%

-----
47.2617 #116
-----
515.625 -33.1349 41.9638%
531.25 -35.4848 35.8299%

-----
47.9797 #117
-----
312.5 -33.1426 32.1085%
2609.38 -37.1045 34.3022%
2625 -33.9743 47.5196%

-----
55.3009 #118
-----
531.25 -36.0892 35.211%
2609.38 -36.9864 32.5112%

-----
55.0882 #119
-----
515.625 -35.5906 34.9325%
531.25 -32.8489 48.8972%
703.125 -39.2875 30.9626%
2625 -35.6242 40.4513%

-----
47.5532 #120
-----
515.625 -33.4676 44.029%
531.25 -32.0851 52.2034%
546.875 -37.041 33.2662%
1562.5 -41.3327 37.1792%
1578.12 -40.8659 38.1691%

-----
45.7161 #121
-----
437.5 -35.6803 30.6256%
515.625 -35.9799 36.3161%

-----
41.5336 #122
-----
437.5 -30.1892 55.1985%
453.125 -34.8873 35.5186%
875 -40.6519 33.1906%

-----
56.5525 #123
-----
2546.88 -36.5754 36.8273%
2671.88 -37.565 39.3573%
2687.5 -36.1009 45.5212%

-----
45.8232 #124
-----
1921.88 -41.4289 31.8945%

-----
54.1464 #125
-----
3140.62 -40.3553 32.3322%
3484.38 -38.5092 37.0497%
3500 -38.3515 37.5649%

-----
52.7757 #126
-----
343.75 -31.2551 39.9564%
359.375 -32.1933 37.587%
1046.88 -41.2004 30.1852%
2453.12 -37.4466 33.4611%

-----
41.0189 #127
-----
343.75 -31.0222 41.7423%
359.375 -31.3377 41.8517%
703.125 -37.8991 32.4968%
3140.62 -40.5391 31.835%
3484.38 -38.9216 37.8866%
3500 -38.3574 39.8233%

-----
58.9259 #128
-----
343.75 -29.9204 47.4952%
359.375 -30.2199 47.8692%
3109.38 -39.2472 35.8736%
3125 -40.6572 31.0354%

-----
43.1062 #129
-----
343.75 -30.9344 43.2322%
359.375 -31.7459 41.4376%
687.5 -38.9643 30.2847%
703.125 -37.7784 33.7029%
1046.88 -40.7424 30.6267%
1390.62 -41.2888 39.5718%
1406.25 -39.8994 44.6485%

-----
57.9715 #130
-----
343.75 -29.2268 51.4003%
359.375 -30.574 46.7209%
2093.75 -41.6261 30.965%
2437.5 -38.7712 30.4856%
2453.12 -36.9906 36.0362%

-----
52.0014 #131
-----
343.75 -30.8847 42.6943%
359.375 -30.4593 46.4782%
703.125 -38.6423 30.2183%
1390.62 -43.7703 30.6655%

-----
59.9129 #132
-----
343.75 -30.6012 43.3341%
359.375 -32.5068 36.7311%
687.5 -35.6346 40.0382%
703.125 -33.2821 49.7211%

-----
56.2803 #133
-----
343.75 -32.1467 36.2421%
359.375 -33.2007 33.4249%

-----
48.3384 #134
-----
703.125 -36.2927 35.2865%

-----
44.6142 #135
-----
359.375 -30.5356 45.0033%
1500 -44.0471 33.593%
1937.5 -42.4388 30.3201%
2109.38 -40.7397 32.5676%
2125 -40.9617 30.8498%
2453.12 -36.4282 36.3975%
2468.75 -37.9683 30.4766%
2609.38 -37.9776 32.6103%
3343.75 -42.4017 33.2043%
3359.38 -43.1195 31.1262%

-----
47.0562 #136
-----
343.75 -30.8559 42.9798%
359.375 -33.2778 33.9816%
1046.88 -38.4085 39.2535%
2093.75 -41.5573 32.0139%
3500 -40.3204 33.9768%

-----
53.4992 #137
-----
312.5 -31.8397 38.0844%
343.75 -33.9751 30.1436%
703.125 -35.1299 38.4451%
2093.75 -41.1331 32.9797%
2109.38 -40.0206 36.1549%
3500 -40.9559 31.7654%

-----
52.528 #138
-----
1734.38 -42.3941 30.2778%
1750 -40.0596 37.2892%
3500 -40.083 32.7644%

-----
58.8077 #139
-----
2453.12 -34.2814 42.7228%
2468.75 -35.6192 36.4805%

-----
54.6354 #140
-----

-----
61.6833 #141
-----
687.5 -32.4967 47.9634%
703.125 -31.2651 54.114%
1046.88 -38.2265 40.3561%

-----
52.7896 #142
-----

-----
64.6658 #143
-----
328.125 -32.017 37.1648%
343.75 -28.1296 55.7862%
359.375 -30.3293 46.3409%
1750 -38.6589 43.4347%
2437.5 -35.346 40.2191%
2453.12 -34.2799 44.3118%
2796.88 -34.8211 46.5124%
2812.5 -38.4357 32.9349%
3140.62 -41.4205 32.391%
3156.25 -41.864 32.1635%
3500 -37.019 40.8335%

-----
73.7418 #144
-----
343.75 -29.3773 49.8854%
359.375 -31.4265 42.1413%
2453.12 -37.3867 31.9864%

-----
54.62 #145
-----
343.75 -32.6847 34.2072%
500 -36.8476 33.4445%
3500 -38.3375 35.8826%

-----
42.3477 #146
-----
796.875 -38.0951 31.9949%
859.375 -39.4591 31.0766%
1296.88 -44.7587 30.14%
1312.5 -44.1157 30.7632%
1406.25 -44.1344 30.1223%
1421.88 -44.1791 30.2791%
1500 -44.1501 32.0291%
1921.88 -41.7791 35.1399%
1937.5 -41.1581 37.4701%
2093.75 -41.6529 33.2911%
3500 -38.5131 34.5591%
3515.62 -39.1463 32.7961%

-----
49.3826 #147
-----
1390.62 -43.6938 31.4857%
2343.75 -38.5168 30.7786%
2750 -37.8605 33.9592%

-----
71.4938 #148
-----
781.25 -36.1855 38.2299%

-----
56.9471 #149
-----
781.25 -32.6771 53.4303%
796.875 -35.5517 42.8578%
2359.38 -36.7947 34.4702%

-----
53.9938 #150
-----
390.625 -34.0556 33.8127%
781.25 -37.969 33.4051%
796.875 -38.2984 34.0238%
1187.5 -42.0255 33.8421%
3546.88 -35.7518 42.5329%
3562.5 -37.1645 37.8241%

-----
55.8859 #151
-----
3109.38 -41.5825 30.5056%

-----
50.6001 #152
-----
1171.88 -39.031 42.5998%
1187.5 -38.7004 44.208%

-----
48.7943 #153
-----

-----
61.7676 #154
-----
390.625 -29.1878 57.0217%
406.25 -34.1795 36.4002%
2359.38 -35.0169 39.8078%
2375 -36.6956 33.2814%

-----
58.6719 #155
-----
390.625 -30.52 49.8565%
406.25 -34.9846 32.5172%
687.5 -39.0241 30.9372%
703.125 -37.8693 32.1672%

-----
68.8178 #156
-----
390.625 -34.1405 34.9955%
687.5 -37.8739 35.1003%
703.125 -35.9574 39.3199%
781.25 -36.1148 35.9733%

-----
46.5905 #157
-----
781.25 -36.8604 32.8747%
2765.62 -36.7408 43.1103%
2781.25 -37.4596 41.2538%
3140.62 -40.7121 34.892%

-----
40.6535 #158
-----
781.25 -34.0636 44.0757%
2359.38 -34.7214 39.4189%

-----
50.1077 #159
-----

-----
42.7087 #160
-----
781.25 -36.4657 34.2304%

-----
63.1218 #161
-----
390.625 -32.7842 41.5398%
781.25 -35.6494 36.1744%
796.875 -37.8791 30.4496%

-----
72.5505 #162
-----
390.625 -29.9774 55.7002%
406.25 -35.1069 34.1576%
781.25 -34.4129 41.8689%
796.875 -37.5322 32.1062%

-----
56.1157 #163
-----
390.625 -34.0162 36.4714%
1171.88 -40.8299 30.8874%
1187.5 -39.2811 37.7497%

-----
58.7494 #164
-----

-----
52.8018 #165
-----
703.125 -38.4 30.2671%
781.25 -34.2362 44.1199%
796.875 -36.7114 36.3752%
2359.38 -37.3427 32.983%

-----
62.0247 #166
-----
515.625 -39.6035 31.1749%
703.125 -38.9741 30.1077%
781.25 -35.2711 41.7074%
796.875 -38.5396 31.2393%

-----
59.2554 #167
-----
437.5 -35.657 30.5867%
2750 -37.4943 33.8973%

-----
49.0402 #168
-----
437.5 -35.5554 30.7711%
453.125 -35.7405 31.625%
781.25 -35.0258 42.9569%
796.875 -34.6495 46.0757%
812.5 -38.6701 31.1015%
828.125 -38.2726 32.2491%
2750 -35.6739 41.4425%
2765.62 -37.1537 35.7136%

-----
47.8285 #169
-----
343.75 -33.1974 32.3118%
390.625 -32.826 36.424%
781.25 -35.5399 39.9239%
796.875 -38.0882 32.0628%
3546.88 -37.7333 37.2191%

-----
53.7791 #170
-----
343.75 -31.8174 36.7902%
390.625 -28.9862 53.2793%

-----
48.0459 #171
-----
390.625 -30.2097 46.3124%

-----
43.5846 #172
-----

-----
51.1435 #173
-----
703.125 -37.9771 31.3315%
2359.38 -37.0092 35.2341%

-----
50.707 #174
-----
703.125 -37.088 35.3276%
781.25 -36.8306 37.7315%
796.875 -38.7562 32.3392%
2343.75 -38.4744 31.9446%
2359.38 -36.6789 37.7323%

-----
52.5004 #175
-----
390.625 -32.1679 35.8004%

-----
47.7582 #176
-----
781.25 -36.72 35.4236%
796.875 -37.928 32.9286%

-----
51.3064 #177
-----
390.625 -29.428 50.0181%
406.25 -33.4759 33.4218%

-----
67.3214 #178
-----
390.625 -31.1559 42.2559%

-----
58.7154 #179
-----

-----
54.3929 #180
-----
781.25 -37.4435 32.9722%

-----
43.0791 #181
-----
781.25 -37.659 32.0579%
2359.38 -35.0551 40.8002%
2375 -35.1183 39.105%

-----
41.9898 #182
-----
359.375 -34.0001 33.4194%
375 -34.5124 31.9479%

-----
38.1958 #183
-----
687.5 -35.7284 38.9407%
703.125 -37.1153 33.1329%
1625 -43.3983 32.0198%
1640.62 -41.7818 37.6611%
2187.5 -40.6701 31.7182%
2203.12 -39.4539 36.1799%
2671.88 -38.7979 34.529%
3718.75 -43.0884 32.4946%
3734.38 -42.7434 33.8434%
3843.75 -43.5128 32.0197%

-----
60.4571 #184
-----
2453.12 -32.6233 49.6013%
2468.75 -35.602 38.0848%
2796.88 -38.1211 38.4848%
2812.5 -38.3794 36.1931%
3500 -38.8763 36.452%
3515.62 -35.1033 50.9527%
3531.25 -38.6716 36.031%
3875 -41.9617 36.7416%

-----
55.6303 #185
-----
343.75 -34.5704 30.7962%

-----
59.294 #186
-----
343.75 -34.0131 32.9307%
687.5 -36.2261 35.9856%
703.125 -34.9258 42.1324%
1390.62 -41.5801 33.9363%
1406.25 -40.8439 36.961%
3500 -39.0434 36.0382%

-----
55.9673 #187
-----
3515.62 -39.0525 35.578%

-----
49.4184 #188
-----
687.5 -34.6025 42.8049%
703.125 -31.5201 59.0196%
2437.5 -36.915 31.629%
2453.12 -36.5183 32.0486%

-----
56.3386 #189
-----
343.75 -32.8145 37.9215%
359.375 -35.1271 31.3456%
703.125 -35.9765 39.8739%

-----
46.789 #190
-----
343.75 -33.4259 34.2302%
359.375 -32.5034 40.5479%

-----
60.4063 #191
-----
343.75 -30.0626 49.5011%
359.375 -30.939 47.7247%

-----
58.0772 #192
-----
343.75 -33.0006 34.9002%
359.375 -33.0633 36.6057%
687.5 -37.8091 31.2957%
703.125 -35.4057 41.9867%
1046.88 -40.7505 33.0291%
1750 -41.6444 33.293%
2437.5 -35.6893 35.7455%
2453.12 -35.597 35.0329%
3484.38 -39.0083 32.942%
3500 -35.8866 45.032%
3515.62 -39.2301 33.6072%

-----
60.3522 #193
-----

-----
40.5717 #194
-----
343.75 -33.365 31.3425%
1562.5 -43.9759 30.7656%
2125 -40.3351 31.2303%
2484.38 -35.7981 32.1611%

-----
47.5496 #195
-----
406.25 -33.8695 32.7028%
421.875 -34.6201 31.2875%
2500 -33.9533 40.0022%
2515.62 -36.1231 33.2085%
2921.88 -42.3063 31.0934%

-----
49.7294 #196
-----
2484.38 -35.6946 32.5983%
2796.88 -40.7915 30.1829%
2906.25 -42.2757 30.4339%
3140.62 -41.9298 30.2025%

-----
57.242 #197
-----
406.25 -32.426 38.6811%
421.875 -32.5143 39.2379%
2796.88 -40.1555 32.4272%

-----
56.3871 #198
-----
406.25 -33.4927 33.77%
421.875 -32.1371 39.9939%
828.125 -34.7006 48.7679%
843.75 -37.9491 36.819%
2484.38 -35.2611 34.3332%
2500 -34.5812 36.9708%

-----
54.7889 #199
-----
406.25 -29.5876 50.3197%
421.875 -29.8073 49.898%
828.125 -35.3019 44.2158%
2484.38 -36.0069 31.2898%
2500 -33.2996 42.53%

-----
56.2049 #200
-----
406.25 -28.9989 52.8587%
421.875 -28.8731 53.8095%
828.125 -37.7625 32.906%

-----
49.4558 #201
-----
406.25 -33.4957 31.9093%
703.125 -38.606 31.3222%

-----
48.1292 #202
-----
406.25 -32.3383 35.6091%
703.125 -38.012 34.1821%
828.125 -34.1326 47.4963%
843.75 -36.5352 38.3326%

-----
46.1064 #203
-----
828.125 -34.4674 45.095%
2500 -37.244 30.5641%

-----
42.5112 #204
-----
406.25 -29.2292 53.2241%
421.875 -29.0135 53.9631%
687.5 -38.7679 30.2012%
703.125 -37.4008 35.0598%

-----
35.5868 #205
-----
796.875 -39.0616 30.0023%
1640.62 -43.1808 30.3632%

-----
46.4608 #206
-----
312.5 -33.3737 31.8477%
703.125 -39.4948 30.0644%

-----
54.5136 #207
-----
703.125 -39.5529 30.5558%
1046.88 -40.934 30.0021%

-----
63.4987 #208
-----
687.5 -37.9452 37.1446%
703.125 -36.5053 42.2086%
875 -37.0917 41.4215%
1046.88 -38.0033 41.123%
1062.5 -40.3052 32.8367%
3484.38 -38.792 35.9708%
3500 -39.3108 34.5177%

-----
45.1959 #209
-----
515.625 -31.1399 56.0521%
531.25 -33.0448 48.3086%
890.625 -40.7005 31.5907%
1046.88 -39.3198 37.11%

-----
55.0559 #210
-----
359.375 -35.3314 32.2814%
515.625 -32.1334 52.0041%
531.25 -34.6348 42.0717%
1046.88 -40.7069 33.6234%
2265.62 -39.0182 36.6376%
2281.25 -38.0998 40.1227%

-----
60.8785 #211
-----
343.75 -31.9189 44.0991%
359.375 -33.1951 41.8666%
515.625 -31.3282 55.5729%
531.25 -33.6601 45.5976%
1046.88 -41.5098 30.8211%
2609.38 -35.253 40.6925%
2625 -36.7339 35.6592%

-----
62.4072 #212
-----
343.75 -34.8428 33.7812%
515.625 -33.8554 43.1371%
531.25 -35.1095 38.3381%

-----
65.3935 #213
-----
515.625 -36.6844 33.57%
2093.75 -39.7794 33.038%
2437.5 -38.9411 33.7198%
2453.12 -34.1331 51.4268%
2468.75 -38.9096 32.0409%
2609.38 -30.7799 63.5656%
2625 -32.5984 55.4582%
2796.88 -39.3052 38.6494%
3671.88 -37.6753 44.1564%
3687.5 -40.2403 34.5245%

-----
60.5719 #214
-----
515.625 -34.9807 40.337%
531.25 -35.2827 38.9677%
1046.88 -38.5125 38.8047%
1562.5 -40.4213 39.3979%
1578.12 -42.8586 31.601%
2437.5 -36.2829 42.5209%
2453.12 -39.3295 30.4893%
2796.88 -41.2235 32.1004%
3312.5 -41.7979 31.957%

-----
73.1558 #215
-----
515.625 -36.2773 35.8593%
531.25 -36.2736 35.8422%
1562.5 -38.1251 46.7827%
1578.12 -41.5046 34.927%
2093.75 -38.2113 37.2989%
2437.5 -38.2153 35.7454%
3656.25 -39.783 35.8779%
3671.88 -40.7882 32.8387%

-----
34.6238 #216
-----
515.625 -36.4582 37.2999%
531.25 -31.4818 59.1471%
546.875 -37.0565 34.5807%
875 -41.1829 34.1722%
1125 -41.7864 30.6209%
1140.62 -41.4805 33.5635%
1546.88 -41.0324 36.6894%
1562.5 -42.8369 31.4428%
1656.25 -43.1606 32.9489%
1828.12 -42.2352 38.2105%
1843.75 -41.947 38.8606%
1937.5 -41.683 36.2821%
2609.38 -35.1073 44.9518%
2625 -37.2399 36.7222%
3328.12 -41.8137 30.5253%
3421.88 -40.1812 33.0876%
3687.5 -40.7731 32.1693%

-----
61.2491 #217
-----
343.75 -35.492 33.1691%
359.375 -36.5006 32.4091%
515.625 -33.6907 49.6184%
531.25 -32.6179 55.0562%
1046.88 -38.6411 40.287%
1562.5 -42.4044 32.2289%
2437.5 -39.2066 31.5876%
2453.12 -38.5749 33.3809%
2609.38 -37.5682 35.8381%
3140.62 -40.5202 32.9374%
3671.88 -38.0782 39.8754%

-----
57.6214 #218
-----
343.75 -33.274 42.0901%
359.375 -35.0611 37.6037%
515.625 -30.9691 61.6009%
531.25 -32.511 54.4144%
687.5 -39.0432 34.6103%
703.125 -37.938 38.8293%
2093.75 -39.353 31.4751%
2437.5 -37.0193 37.4343%
2453.12 -38.4708 31.7473%

-----
52.2325 #219
-----
687.5 -40.0397 30.6353%
703.125 -37.7152 39.3623%
1046.88 -38.7996 36.8465%
2093.75 -37.7596 37.9684%
2437.5 -35.7446 42.7209%
2453.12 -36.8789 37.7327%

-----
57.7975 #220
-----
1562.5 -41.5379 35.6484%
2093.75 -36.7966 41.8464%
2109.38 -37.3743 38.2327%

-----
61.8059 #221
-----
703.125 -37.3509 39.3259%
2093.75 -36.8739 41.9706%
2109.38 -38.8781 33.1431%
2265.62 -38.6468 36.6136%
2281.25 -40.6593 30.3827%
2796.88 -38.8111 39.0553%
3140.62 -40.614 32.1495%
3500 -39.1924 33.504%

-----
56.5341 #222
-----
343.75 -32.9785 45.4548%
359.375 -35.283 37.8395%
687.5 -39.1646 33.0279%
703.125 -37.5845 39.5384%
2093.75 -39.1912 34.6383%
2437.5 -37.4948 36.4531%
2453.12 -36.8299 39.0865%
2609.38 -34.8623 44.9691%
2625 -37.218 35.6833%
2796.88 -38.6813 39.4639%

-----
64.2483 #223
-----
343.75 -32.6495 46.6856%
359.375 -35.5064 36.2413%
515.625 -34.7757 44.3483%
531.25 -36.2483 38.7961%
687.5 -38.5385 33.9768%
703.125 -37.0695 40.0288%
2609.38 -33.8035 47.69%
2625 -34.1523 46.1018%
3484.38 -37.7253 38.6235%
3500 -38.7846 34.5844%

-----
54.1321 #224
-----
515.625 -35.3346 40.9144%
531.25 -37.2552 34.0052%
2609.38 -34.2543 46.7435%
2625 -34.1911 46.8181%
3156.25 -41.1297 30.3443%
3500 -38.6103 35.3713%
3671.88 -34.1004 54.6114%
3687.5 -37.9751 38.2849%
3859.38 -45.1687 30.3341%

-----
60.9983 #225
-----
2093.75 -41.128 30.767%

-----
64.1445 #226
-----
703.125 -38.3298 35.0097%
1046.88 -39.5175 35.0962%
2093.75 -40.0474 34.585%
2265.62 -38.0169 36.116%
3484.38 -39.36 33.2874%
3500 -38.1075 37.8621%
3656.25 -40.2646 30.385%
3671.88 -40.3121 30.0246%

-----
44.4497 #227
-----
3500 -38.634 35.3171%
3515.62 -38.5292 36.3039%

-----
53.3154 #228
-----
515.625 -36.4509 31.8525%
531.25 -35.8739 33.7436%
2093.75 -40.8473 33.4825%
3671.88 -35.4109 46.7231%
3687.5 -37.1334 39.0058%

-----
52.6443 #229
-----
515.625 -31.475 53.6261%
531.25 -31.6561 52.3029%

-----
54.7256 #230
-----
515.625 -28.3422 69.7128%
531.25 -30.2318 58.3576%
2093.75 -36.0419 50.5465%
2109.38 -38.2801 40.8747%
2437.5 -39.3733 33.0468%
2984.38 -41.2443 32.414%

-----
45.0018 #231
-----
515.625 -30.2143 56.6722%
531.25 -30.2043 56.1745%
2109.38 -41.324 30.0685%
2453.12 -36.2017 45.2928%
2609.38 -35.7958 39.4969%
2625 -33.7087 48.0099%
2640.62 -38.361 30.1953%
3156.25 -38.2904 37.3052%
3171.88 -39.6014 31.821%
3687.5 -39.8606 31.8258%

-----
71.6648 #232
-----
515.625 -32.5418 44.4973%
531.25 -32.4532 44.2863%
703.125 -38.6487 30.3184%
1046.88 -40.2657 31.3984%
1562.5 -39.983 41.6418%
2593.75 -36.9597 33.4754%
2609.38 -32.9926 50.184%
2625 -37.8818 31.3854%
3140.62 -39.7333 31.745%
3671.88 -34.7637 52.4965%
3687.5 -35.3014 50.1628%
3859.38 -45.2383 30.2114%

-----
66.5877 #233
-----
515.625 -34.7574 36.9359%
531.25 -34.502 37.4267%
703.125 -38.0893 30.7442%
2437.5 -38.7633 33.0088%
2453.12 -38.3073 34.8993%
2796.88 -41.8463 30.7732%

-----
65.2345 #234
-----
515.625 -35.3255 35.9619%
531.25 -36.6769 30.621%
687.5 -38.1358 31.7267%
703.125 -35.3642 42.0101%
1562.5 -40.239 39.9177%
2437.5 -38.3559 33.0367%
2453.12 -36.8491 38.4605%
3140.62 -39.9216 30.586%
3500 -37.1206 38.0495%

-----
57.4567 #235
-----
515.625 -36.3336 33.2127%
531.25 -35.9622 34.0774%
1046.88 -39.4844 33.5358%
2625 -35.6312 35.7098%
3484.38 -39.0176 30.2255%
3687.5 -38.038 37.9877%

-----
52.7865 #236
-----
515.625 -30.8412 58.3627%
531.25 -32.6716 49.3243%
2093.75 -38.852 34.3297%

-----
65.5301 #237
-----
515.625 -33.107 48.7266%
531.25 -35.3502 39.1609%
1046.88 -37.1512 38.7188%
2093.75 -39.2327 32.5402%

-----
34.0661 #238
-----
2859.38 -39.6212 32.3676%
2875 -39.7792 32.1916%

-----
54.748 #239
-----
515.625 -34.4029 40.0836%
531.25 -34.0284 41.9342%
2453.12 -36.3106 35.134%
2531.25 -36.6096 30.3566%
2609.38 -35.5914 35.6498%
2625 -31.5299 54.0864%
2734.38 -40.1106 30.4945%
3125 -40.0868 30.4754%
3140.62 -38.3743 36.7147%
3484.38 -38.4943 33.5898%
3500 -34.4712 49.5719%
3515.62 -39.4474 31.6359%

-----
41.6111 #240
-----
1546.88 -41.187 34.1058%
1562.5 -35.271 56.9059%
1578.12 -38.2906 43.7655%
2093.75 -34.7236 49.5239%
2109.38 -35.9606 44.8328%
2625 -37.2063 30.2934%
3500 -39.4281 32.4015%
3828.12 -42.7543 34.1325%
3843.75 -41.6204 37.947%

-----
47.754 #241
-----
515.625 -34.9043 38.0487%
531.25 -37.1586 30.0228%
1046.88 -39.434 31.9938%
1562.5 -42.6276 30.6751%
1578.12 -42.0797 32.0339%
2453.12 -36.5454 33.5133%
2609.38 -36.053 35.4573%
3312.5 -39.9466 36.6299%
3359.38 -40.9778 30.2402%
3484.38 -38.7481 35.514%

-----
42.5906 #242
-----
328.125 -32.8775 35.4894%
343.75 -29.1887 55.1538%
359.375 -29.3328 56.069%
375 -34.5037 33.5547%
1046.88 -38.9095 34.2715%
1734.38 -39.8467 35.7325%
1750 -40.9222 30.947%
3140.62 -39.6525 32.9328%
3187.5 -41.1858 30.0924%
3625 -41.0089 30.945%

-----
66.2549 #243
-----
531.25 -33.8318 45.2942%
546.875 -34.5051 44.2256%
1234.38 -40.2173 34.3955%
1250 -39.6051 35.9561%
1265.62 -41.0307 30.7449%
1281.25 -40.3749 32.7372%
1406.25 -37.2157 45.4998%
1421.88 -37.3102 46.5939%
1437.5 -39.155 40.8521%
1453.12 -42.2605 30.8003%
1812.5 -39.5336 34.3364%
1828.12 -37.9879 39.8584%

-----
59.0854 #244
-----
500 -37.4826 30.7394%
515.625 -35.1985 38.1666%
671.875 -38.0854 35.825%
687.5 -34.9116 49.2467%
859.375 -40.7421 30.5962%
1015.62 -41.1465 31.7409%
1031.25 -40.0975 35.3016%
1187.5 -41.2415 33.4739%
1203.12 -41.8209 30.7933%
1359.38 -38.8209 38.7569%

-----
53.3002 #245
-----
562.5 -35.2418 43.0925%
578.125 -33.6037 49.6334%
750 -37.9616 37.8559%
765.625 -33.7097 56.3275%
781.25 -38.5488 36.9531%
1140.62 -39.2422 40.8196%
1156.25 -38.0438 45.3905%
1328.12 -38.2894 42.0418%
1343.75 -38.0265 43.1911%

-----
65.3813 #246
-----
390.625 -35.8713 38.283%
406.25 -37.2221 34.1687%
562.5 -39.6685 31.0572%
578.125 -32.6815 59.0641%
593.75 -34.9076 49.5186%
781.25 -38.1963 42.794%
968.75 -40.3784 40.3234%
984.375 -39.4684 43.9572%
1171.88 -40.2123 41.9452%
1187.5 -43.8049 30.5473%
1359.38 -38.224 46.3515%
1375 -34.9046 61.358%
1390.62 -41.714 35.6361%

-----
45.5498 #247
-----
343.75 -38.4598 34.6903%
359.375 -38.2654 35.8233%
562.5 -41.7081 30.2996%

-----
47.7041 #248
-----
343.75 -41.6391 30.1304%
703.125 -44.0645 30.1816%

-----
60.7415 #249
-----
343.75 -38.2251 42.3926%
359.375 -39.6242 36.8703%
578.125 -42.2119 35.3701%
593.75 -43.7305 30.6216%
875 -45.1538 32.4182%

-----
58.2692 #250
-----

-----
53.4567 #251
-----

-----
56.7564 #252
-----

-----
74.5707 #253
-----
1515.62 -45.6854 31.2665%
1578.12 -42.4091 39.6239%
1593.75 -41.0442 43.468%
1609.38 -43.7955 34.4717%
1750 -44.2173 32.2745%
1765.62 -44.7068 31.0172%
1781.25 -42.9097 36.3699%
1796.88 -41.085 41.9443%
1812.5 -42.4986 36.6848%
1828.12 -39.9597 44.8152%
1843.75 -41.4841 39.5678%
1859.38 -41.617 38.2964%
1968.75 -41.1317 39.2032%
1984.38 -38.6402 48.29%
2000 -40.6988 40.6949%
2015.62 -43.1221 32.4617%
2031.25 -41.0473 39.9057%
2046.88 -40.2873 42.7945%
2093.75 -43.6135 32.0081%
2109.38 -43.4547 31.754%
2125 -40.7428 40.5962%
2140.62 -36.0301 58.6741%
2156.25 -34.3179 65.9552%
2171.88 -34.7654 63.7241%
2187.5 -36.9174 54.0282%
2218.75 -35.6785 57.8523%
2234.38 -38.3748 45.9355%
2250 -41.1603 36.0387%
2296.88 -38.8059 45.4668%
2312.5 -37.6311 50.4795%
2328.12 -40.8041 39.2229%
2343.75 -40.8511 38.9087%
2359.38 -40.3631 40.798%
2406.25 -39.3755 46.6645%
2421.88 -42.1455 37.2497%
2437.5 -43.3218 32.4251%
2453.12 -40.7663 40.6248%
2468.75 -42.6749 34.4649%
2484.38 -43.6573 31.2411%
2500 -42.2096 35.7661%
2515.62 -42.2296 36.6991%
2531.25 -43.2981 34.1928%
2546.88 -43.1982 35.107%
2562.5 -42.3453 37.9365%
2578.12 -40.8565 42.9717%
2593.75 -40.2383 45.3628%
2687.5 -44.2368 36.1439%
2734.38 -45.272 31.6693%
2781.25 -40.9967 46.3055%
2796.88 -37.6846 59.4914%
2812.5 -38.5755 55.9909%
2828.12 -38.8291 53.7034%
2843.75 -39.0852 51.9695%
2859.38 -39.2884 50.5182%
2875 -42.9846 37.7424%
2906.25 -40.2801 48.2339%
2921.88 -38.6984 54.2333%
2937.5 -42.9034 39.1581%
2968.75 -41.8125 43.4414%
2984.38 -42.8304 40.5209%
3000 -43.2989 39.6764%
3015.62 -44.322 36.896%
3078.12 -45.4002 34.1154%
3156.25 -45.909 31.9439%

-----
135.263 #254
-----
328.125 -41.9109 35.4676%
343.75 -30.8153 85.1705%
359.375 -27.5052 106.539%
375 -33.0612 71.2713%
531.25 -41.4708 40.3881%
703.125 -48.1883 30.8224%
875 -48.4037 31.466%
890.625 -48.3528 32.7135%
1046.88 -51.3101 30.4064%
1062.5 -50.7166 31.8257%
1218.75 -47.4716 37.616%
1234.38 -41.2954 57.6321%
1250 -43.7437 47.9005%
1375 -43.193 45.773%
1390.62 -45.9252 36.2283%
1406.25 -39.3309 58.6766%
1421.88 -35.5455 75.1967%
1437.5 -36.9059 67.1197%
1453.12 -42.7235 43.6069%
1578.12 -43.0433 39.493%
1593.75 -39.4519 51.5186%
1609.38 -43.4545 37.5223%
1750 -39.4479 50.3455%
1765.62 -35.259 68.2544%
1781.25 -36.4332 62.7085%
1796.88 -44.1815 34.0191%

-----
146.329 #255
-----
343.75 -34.3388 67.9528%
359.375 -36.9759 55.2352%
500 -42.9098 34.4705%
515.625 -33.6715 72.1033%
531.25 -35.0037 67.4686%
703.125 -47.9519 32.7161%
859.375 -48.104 33.4031%
875 -48.3351 33.4772%
1046.88 -50.7295 33.5145%
1218.75 -48.684 35.4563%
1390.62 -45.2861 39.0833%
1406.25 -44.4162 41.2951%
1421.88 -46.7613 33.6936%
1437.5 -47.5146 30.1304%
1546.88 -42.0849 44.1182%
1562.5 -34.9188 74.6984%
1578.12 -33.2151 83.0061%
1593.75 -34.6833 74.1004%
1609.38 -40.2064 50.1054%
1718.75 -41.7079 43.6518%
1734.38 -38.8409 54.0137%
1750 -43.3338 37.9479%
1906.25 -42.618 37.2979%
1921.88 -41.5545 40.247%
1937.5 -44.4512 31.2056%
2078.12 -40.0939 45.3872%
2093.75 -38.8418 50.3827%
2109.38 -40.6775 42.8862%
2250 -42.4098 35.896%
2265.62 -43.4533 33.1652%

-----
121.644 #256
-----
328.125 -38.581 45.5689%
343.75 -34.876 61.4051%
500 -37.3527 54.5484%
515.625 -35.1388 65.6762%
1031.25 -52.1126 30.0609%
1718.75 -45.3525 31.156%
1875 -38.2528 51.6257%
1890.62 -35.2803 63.914%
1906.25 -40.9456 39.497%
2046.88 -37.4514 53.2151%
2062.5 -37.5265 52.7691%
2218.75 -41.2951 40.5517%
2375 -45.0702 30.1779%
2390.62 -37.5182 57.2417%
2406.25 -38.1888 55.123%
2562.5 -38.9572 53.5973%
2578.12 -41.5418 44.3544%
3406.25 -48.3371 30.9701%
3421.88 -44.7465 42.8299%
3437.5 -49.011 30.9943%

-----
46.9227 #257
-----
312.5 -33.0682 63.8328%
328.125 -36.0352 50.1201%
484.375 -35.2922 57.3911%
500 -37.3076 50.1415%
531.25 -42.5455 36.0537%
546.875 -39.2374 50.3286%
562.5 -41.4178 44.0199%
578.125 -44.6773 34.8813%
640.625 -44.2232 41.9897%
656.25 -46.2062 36.3211%
718.75 -43.723 41.9591%
734.375 -45.941 34.5461%
750 -42.6114 44.9247%
765.625 -38.4895 60.7903%
781.25 -39.7081 56.766%
796.875 -38.7949 61.2424%
812.5 -38.8329 61.0681%
828.125 -43.442 43.2853%
843.75 -43.6259 43.0999%
859.375 -42.777 47.6088%
906.25 -46.5336 38.5558%
921.875 -44.0313 47.3287%
953.125 -47.0362 38.3511%
968.75 -44.822 45.4937%
984.375 -45.3487 44.9556%
1000 -49.7649 33.1573%
1093.75 -51.2542 30.4269%
1125 -50.5621 31.901%
1140.62 -51.3047 30.2005%
1296.88 -48.2901 35.7907%
1453.12 -44.1725 37.8332%
1468.75 -45.4133 34.1033%
1484.38 -46.4693 30.3927%
1500 -45.1421 33.661%
1656.25 -44.6597 32.3739%
2078.12 -41.674 33.1008%
2140.62 -42.423 30.0627%
2156.25 -40.2462 37.394%
2203.12 -37.588 47.5743%
2234.38 -37.9171 47.2425%
2250 -41.4611 34.8151%
2281.25 -39.6344 42.0659%
2296.88 -37.8763 49.1058%
2312.5 -38.1948 48.7761%
2328.12 -40.7303 39.3743%
2359.38 -41.4691 37.6773%
2375 -40.6977 40.4552%
2390.62 -43.5548 31.7376%
2468.75 -43.2492 31.9715%
2484.38 -43.0359 32.2524%
2515.62 -42.7324 33.7841%
2531.25 -42.0909 35.958%
2625 -44.2799 31.5692%
2640.62 -42.8046 36.9752%
2656.25 -44.3386 33.2163%
2718.75 -42.1262 42.5426%
2812.5 -45.2445 33.5123%
2921.88 -44.8082 32.8429%
2937.5 -45.6702 30.1334%
3078.12 -48.1498 30.2011%
3109.38 -47.8936 32.3433%
3156.25 -47.0792 35.1913%
3250 -46.4252 35.0541%
3265.62 -47.3253 32.2935%
3312.5 -47.9912 31.1272%
3328.12 -44.5093 41.7597%
3343.75 -46.4088 35.9474%
3437.5 -47.4766 34.4756%
3453.12 -46.9208 36.7112%
3781.25 -51.3298 35.2403%
3828.12 -51.6111 38.2784%
3875 -53.2501 34.5486%

-----
49.8738 #258
-----
593.75 -42.3885 38.9777%
906.25 -48.3628 31.4849%

-----
56.3695 #259
-----
750 -46.0194 31.9685%

-----
54.2607 #260
-----

-----
107.167 #261
-----
359.375 -39.7085 32.1899%
375 -37.2394 40.9889%
390.625 -33.2624 58.0722%
406.25 -32.3179 61.8686%
421.875 -35.2242 47.1626%
1859.38 -43.1732 30.3723%

-----
100.656 #262
-----
390.625 -33.5282 58.737%
406.25 -28.0527 88.7044%
421.875 -31.3565 66.8078%
531.25 -39.473 39.6852%
546.875 -38.8212 44.2714%
1953.12 -41.9962 31.7437%
2031.25 -42.6356 31.9432%
2046.88 -39.4516 43.1498%

-----
104.616 #263
-----
343.75 -37.8765 44.1518%
359.375 -40.8734 34.1707%
453.125 -34.1616 57.3811%
468.75 -32.3447 68.0227%
484.375 -42.4482 30.0104%
1937.5 -42.2794 32.7303%
1953.12 -39.595 42.5267%
1968.75 -40.2254 40.7314%
1984.38 -43.1926 31.1006%
2000 -37.6875 50.4581%
2031.25 -39.854 43.6684%
2046.88 -38.9283 47.2597%
2062.5 -42.2025 35.6431%
2078.12 -43.9947 31.3416%
2625 -41.9305 35.3639%
2656.25 -43.9563 30.5089%
2734.38 -45.1546 31.5128%

-----
120.98 #264
-----
375 -33.4925 70.4464%
390.625 -34.197 66.77%
406.25 -43.5399 30.5429%
484.375 -44.1885 32.0475%
500 -35.4821 66.118%
515.625 -36.8929 61.0121%
531.25 -45.797 31.2617%
640.625 -48.9889 33.4148%
1906.25 -41.1733 42.3158%
1921.88 -40.9901 41.9948%
1937.5 -39.6331 46.6313%
1968.75 -44.6637 31.0575%
1984.38 -42.9638 36.4083%
2453.12 -44.0838 33.5861%
2562.5 -40.6365 41.786%
2578.12 -40.0816 43.9523%
2625 -42.761 36.422%
2640.62 -41.8518 40.1763%
2703.12 -45.0707 34.3667%
3343.75 -48.5365 32.5572%
3375 -47.8419 32.5319%
3453.12 -46.9988 32.9739%
3468.75 -42.4778 47.8817%
3484.38 -45.4979 39.137%
3500 -46.7845 34.9442%
3515.62 -48.3826 30.5362%

-----
62.4005 #265
-----
375 -45.1731 32.4811%

-----
47.6877 #266
-----

-----
66.4502 #267
-----
1593.75 -51.7955 35.1837%
1718.75 -46.5149 36.9603%
1734.38 -41.9926 49.7486%
1750 -44.1444 41.6439%
1765.62 -45.179 37.4595%
1781.25 -43.2721 43.3554%
2093.75 -48.1254 30.7312%
2125 -47.9897 31.2991%
2218.75 -47.9696 32.0069%
2281.25 -47.5254 32.0295%
2328.12 -47.2943 32.1508%
2375 -42.9272 44.7234%
2390.62 -44.7857 38.359%
2406.25 -47.1205 30.8731%
2750 -47.8578 35.8776%
2765.62 -48.7313 33.6949%
2796.88 -47.2188 39.6278%
2812.5 -47.6065 38.3626%
3015.62 -49.3565 33.9189%
3093.75 -48.3888 38.5733%
3109.38 -50.3285 33.4991%
3171.88 -49.8654 35.6475%
3187.5 -50.2112 35.447%
3218.75 -52.5097 30.0354%
3234.38 -51.8005 31.0465%
3250 -50.8838 32.8359%
3265.62 -46.6815 44.0621%
3281.25 -47.704 40.2055%
3312.5 -48.3119 37.4328%
3359.38 -47.9543 36.2735%
3375 -48.1029 35.3798%
3437.5 -47.7175 35.0941%
3453.12 -48.4949 33.2715%
3687.5 -50.2414 36.3236%
3703.12 -49.8925 38.4037%
3781.25 -52.9127 36.2606%
3796.88 -53.985 34.923%
3906.25 -57.2399 32.4945%

-----
44.8532 #268
-----
3203.12 -49.9678 31.9954%

-----
36.4435 #269
-----

-----
50.3048 #270
-----

-----
30.367 #271
-----

-----
60.158 #272
-----
312.5 -40.8578 41.816%
328.125 -41.491 39.1625%
343.75 -38.997 50.0872%
359.375 -39.4884 49.3998%
375 -44.23 33.7145%
406.25 -41.6194 42.7554%
421.875 -43.314 37.5519%
437.5 -45.3608 31.7502%
453.125 -45.8798 30.2012%
484.375 -42.1439 44.5928%
500 -43.1755 41.6246%
515.625 -45.0439 35.7262%
531.25 -42.4235 43.9433%
546.875 -42.1188 44.552%
562.5 -42.0117 45.0233%
578.125 -46.8257 30.4434%
625 -46.5765 32.514%
687.5 -47.5035 33.2677%
734.375 -49.5972 30.7491%
750 -48.5742 33.6819%
828.125 -45.8461 40.8617%
843.75 -44.5982 44.8678%
859.375 -47.082 37.794%
875 -46.6731 39.1808%
890.625 -49.4251 31.8887%
906.25 -49.1211 32.7353%
968.75 -48.7456 35.7435%
1109.38 -51.7864 30.2761%
1265.62 -52.2879 30.9351%
1296.88 -52.2005 31.3074%
2015.62 -45.1127 35.0734%
2500 -43.6685 32.0814%
2515.62 -44.2693 30.0858%
2546.88 -41.4423 38.5625%
2562.5 -38.4355 48.9747%
2671.88 -43.9824 31.799%
2828.12 -44.7793 35.2747%
2843.75 -43.1967 40.7616%
2859.38 -46.0207 31.5128%
2984.38 -44.3381 35.122%
3062.5 -44.0373 31.0825%
3078.12 -42.5933 35.5005%
3093.75 -40.5865 42.2085%
3109.38 -43.3514 32.376%
3125 -43.7888 31.4303%
3609.38 -45.3566 31.4318%
3656.25 -45.5226 30.7783%
3812.5 -48.7242 30.6713%
3828.12 -45.113 42.2287%

-----
66.9971 #273
-----
375 -41.3867 38.2703%
390.625 -37.0295 55.6617%
406.25 -42.1391 37.3465%
875 -45.0618 43.216%
890.625 -46.4079 39.8331%
1046.88 -49.6288 35.1892%
1062.5 -50.7191 32.0001%
1437.5 -50.7765 30.6431%
1671.88 -48.7046 30.9728%
2093.75 -40.3028 48.8122%
2109.38 -41.0567 45.3994%
2171.88 -44.1223 33.1138%
2187.5 -44.1363 33.3324%
2250 -38.953 50.5238%
2265.62 -37.6012 54.2159%
2281.25 -43.1382 33.1141%
2562.5 -43.451 31.1226%
2593.75 -42.8594 33.1032%
2609.38 -42.6984 33.4932%
2734.38 -45.1932 31.001%
2875 -46.1457 30.3689%
2890.62 -42.3063 41.9052%
2906.25 -44.8406 32.7297%
2968.75 -44.7458 33.26%
3015.62 -43.1273 36.5199%
3109.38 -40.3053 42.2645%
3125 -36.9625 55.6868%
3140.62 -37.4772 53.0686%
3156.25 -41.5318 38.6201%
3203.12 -43.7276 32.4627%
3296.88 -41.0908 39.9503%
3312.5 -40.1053 43.5092%
3468.75 -43.9613 36.445%
3484.38 -41.0162 45.8882%
3531.25 -44.9907 32.1443%
3562.5 -45.0506 30.0193%
3578.12 -44.8978 30.7637%
3625 -44.618 32.3675%
3640.62 -43.5086 36.1745%
3656.25 -43.7634 35.8459%
3765.62 -45.3944 36.239%
3812.5 -48.5819 30.2756%
3828.12 -44.609 43.1395%
3843.75 -46.1908 38.4179%
3859.38 -45.8526 39.6487%
3875 -47.6098 35.3848%

-----
54.2429 #274
-----
515.625 -44.4259 33.5532%
531.25 -45.3679 30.5217%
2203.12 -41.3149 39.5001%
2218.75 -42.7578 34.3241%
2250 -43.1708 32.9484%
2390.62 -42.157 33.1108%
3000 -43.9438 32.8031%
3281.25 -40.5769 41.9018%
3296.88 -37.7154 51.1234%
3312.5 -39.6654 43.5277%
3328.12 -42.9902 31.9468%
3375 -44.6184 30.1764%
3421.88 -43.0674 36.8968%
3484.38 -42.5978 39.6112%
3500 -42.6335 39.9353%
3515.62 -45.7385 30.1947%
3546.88 -43.7747 33.9826%
3562.5 -43.0668 34.7972%
3609.38 -42.3362 37.0589%
3671.88 -45.0335 30.0836%
3687.5 -45.2207 30.3047%
3765.62 -46.2754 31.5038%

-----
60.4902 #275
-----
515.625 -39.4434 44.2503%
531.25 -37.9091 49.6988%
875 -46.4383 33.37%
2296.88 -40.4147 34.681%
2312.5 -38.4869 40.6284%
2359.38 -41.9802 30.5564%
2484.38 -42.7409 31.2377%
2500 -42.425 32.4182%
2718.75 -41.5394 34.9935%
2875 -43.8939 31.099%
2890.62 -44.1275 30.2467%
3031.25 -43.416 30.2737%
3062.5 -42.8477 30.3663%
3078.12 -38.4378 45.107%
3093.75 -42.088 32.369%
3250 -38.1002 48.9993%
3265.62 -34.2309 65.377%
3281.25 -35.9271 56.5189%
3296.88 -39.3344 41.167%
3312.5 -40.0573 38.2179%
3343.75 -42.0929 31.569%
3437.5 -44.2986 30.8221%
3453.12 -42.7479 35.8625%
3500 -44.7603 30.607%
3625 -41.4831 37.8282%
3640.62 -37.894 51.956%
3656.25 -42.1944 36.3949%
3828.12 -45.7365 32.9963%

-----
64.5469 #276
-----
515.625 -41.3257 31.7026%
531.25 -39.9838 36.2428%
2343.75 -33.7412 54.433%
2359.38 -28.4283 84.1125%
2375 -31.7853 63.701%
3140.62 -36.4754 46.8564%
3156.25 -37.7003 42.8214%
3171.88 -38.0454 43.1004%
3187.5 -40.5627 33.8686%
3328.12 -37.5819 41.8823%
3343.75 -33.1517 61.1727%
3359.38 -36.2416 48.4893%
3375 -39.9715 35.713%
3531.25 -41.7641 33.4687%
3546.88 -38.7696 42.7467%

-----
67.4894 #277
-----
390.625 -37.8515 34.6459%
2156.25 -37.9167 40.9164%
2328.12 -32.9075 56.7843%
2343.75 -25.7783 101.821%
2359.38 -31.9978 62.863%
2734.38 -37.7707 42.3637%
2937.5 -39.7664 39.231%
3125 -39.1742 35.7419%
3312.5 -38.1431 39.326%
3328.12 -35.8508 47.5743%
3703.12 -42.5164 33.2988%
3718.75 -40.1968 42.3858%

-----
59.4412 #278
-----
390.625 -34.3305 49.1815%
406.25 -38.7182 32.8898%
2375 -31.9826 65.529%
2390.62 -33.4624 58.9767%
2578.12 -40.4723 33.0807%
2765.62 -41.4151 35.3016%
2781.25 -43.1778 30.3699%
3171.88 -38.7734 44.7543%
3187.5 -41.6261 34.5047%
3328.12 -40.7726 32.8563%
3359.38 -32.888 65.9797%
3375 -30.2511 82.0395%
3390.62 -37.5728 46.9917%
3562.5 -41.2558 40.1354%
3578.12 -43.7792 33.0295%
3843.75 -47.4788 31.5334%

-----
52.2327 #279
-----
2593.75 -43.1025 30.0462%
2687.5 -42.4037 31.4062%
2703.12 -42.4473 31.8617%
2718.75 -42.6933 32.0839%
2734.38 -43.7325 30.2915%
3359.38 -42.4372 30.3284%
3687.5 -45.0669 35.7768%

-----
66.9828 #280
-----

-----
63.1905 #281
-----
1250 -42.595 35.1425%
1265.62 -39.7512 44.7803%
1281.25 -42.9103 34.0442%
1421.88 -43.805 33.8544%

-----
88.1638 #282
-----
328.125 -34.0022 47.9487%
343.75 -36.021 41.4627%
843.75 -44.0793 30.6309%
953.125 -43.4382 33.2223%
968.75 -37.4364 54.6629%
984.375 -35.9727 61.3937%
1000 -37.2691 56.4984%
1031.25 -41.9371 38.9158%

-----
142.967 #283
-----
343.75 -34.8353 46.5176%
359.375 -24.8875 107.836%
375 -25.5296 103.927%
390.625 -36.8559 41.7732%
531.25 -42.561 31.9444%
718.75 -42.2444 36.3846%
1078.12 -42.6701 36.8999%
1093.75 -40.9083 42.0037%
1109.38 -42.6337 35.6877%
1125 -41.049 40.9511%
1140.62 -43.7034 32.4134%
1265.62 -39.8725 44.2917%
1281.25 -39.317 46.7292%
1296.88 -43.8697 31.3765%
1968.75 -43.1311 33.093%
1984.38 -41.9056 36.6473%

-----
134.629 #284
-----
343.75 -38.8807 33.2869%
515.625 -38.8433 44.0593%
531.25 -33.5634 68.3967%
546.875 -40.5777 40.3881%
1593.75 -41.3054 47.1196%
1609.38 -46.0986 31.4918%
1765.62 -37.1604 59.3782%
1781.25 -35.0836 69.2007%
1796.88 -41.0476 44.3249%
1937.5 -40.3098 46.7484%
1953.12 -38.541 52.3996%
1968.75 -44.1186 32.3931%
2109.38 -41.7823 37.4515%
2125 -36.1387 58.4104%
2140.62 -38.1756 49.6125%
2296.88 -38.5281 47.0164%
2312.5 -37.7154 50.6399%
2468.75 -44.1612 32.0393%
3359.38 -42.9783 38.5123%

-----
116.645 #285
-----
343.75 -32.5459 58.0827%
359.375 -34.8878 48.7417%
515.625 -34.8194 62.6156%
531.25 -35.9554 59.0038%
1906.25 -42.1845 36.7552%
1921.88 -38.281 51.5723%
1937.5 -44.2497 31.1184%
2078.12 -38.5711 51.3211%
2093.75 -33.9364 71.1269%
2109.38 -40.663 42.4147%
2250 -44.2182 30.4972%
2265.62 -38.2225 50.36%
2281.25 -42.096 36.0024%
2421.88 -41.4641 38.7086%
2437.5 -35.0137 65.1348%
2453.12 -38.2647 51.4508%
2609.38 -40.7205 46.2043%
2625 -44.254 34.7329%
2781.25 -46.3171 32.6537%
3296.88 -42.8838 42.9751%
3312.5 -38.3646 58.9653%
3328.12 -44.4518 36.2561%
3484.38 -45.3119 36.5822%

-----
61.6362 #286
-----
328.125 -33.3073 53.4611%
343.75 -35.0667 46.5467%
2031.25 -42.8119 33.884%
2187.5 -42.4976 34.2896%
2203.12 -37.4276 52.6209%
2218.75 -36.2948 57.5137%
2234.38 -37.1857 53.7796%
2250 -40.7717 40.3183%
2312.5 -42.6116 35.4574%
2328.12 -42.767 35.2907%
2343.75 -38.1583 50.817%
2359.38 -35.1761 62.9076%
2375 -33.3761 71.4483%
2390.62 -36.3403 57.3619%
2500 -40.3276 44.0377%
2515.62 -39.3052 48.0996%
2531.25 -40.2221 44.9504%
2546.88 -39.3986 48.8654%
2562.5 -38.947 51.7249%
2671.88 -45.3498 31.5102%
2687.5 -42.1213 42.3025%
2703.12 -40.4596 48.8683%
2718.75 -41.6951 45.0769%
2734.38 -45.2655 34.4816%
2828.12 -47.0185 31.5891%
3234.38 -48.1904 31.0584%
3359.38 -45.39 33.6421%
3375 -42.8291 41.3138%
3390.62 -41.6098 45.3718%
3406.25 -42.2446 43.4331%
3421.88 -42.1354 44.7075%
3453.12 -46.929 31.2092%
3484.38 -46.7359 33.1889%
3546.88 -47.0997 37.5447%
3562.5 -46.4664 40.2456%
3906.25 -55.6916 30.1092%

-----
42.6091 #287
-----
312.5 -34.3696 46.509%
328.125 -37.963 32.9752%
593.75 -41.2342 40.8357%
781.25 -45.6203 31.4033%
921.875 -44.1546 33.2766%
2453.12 -42.682 33.256%
2468.75 -41.8278 36.269%
2859.38 -46.5551 35.1909%
2906.25 -47.65 33.8946%
2921.88 -47.2218 35.8924%
2984.38 -48.8754 32.8487%
3031.25 -49.6943 31.3942%
3062.5 -47.962 37.8395%
3078.12 -46.702 42.1195%
3203.12 -49.316 32.0808%
3218.75 -47.9474 34.8708%
3234.38 -46.0066 38.93%
3250 -47.3893 33.247%
3640.62 -49.9493 31.1934%
3671.88 -44.809 46.7827%
3687.5 -44.9186 47.0472%
3765.62 -48.7828 42.0052%
3781.25 -52.5593 33.6592%

-----
43.0557 #288
-----
312.5 -37.0528 33.7932%
906.25 -45.6697 32.3984%

-----
45.3759 #289
-----

-----
74.0222 #290
-----
1875 -44.117 31.3652%
1890.62 -42.813 34.8293%
1906.25 -43.362 32.7417%
1921.88 -42.079 36.9264%
1937.5 -42.5427 34.8246%
2000 -41.9053 36.5856%
2875 -48.1854 30.1358%
2890.62 -47.7312 31.4358%

-----
89.4579 #291
-----
406.25 -28.6768 82.9998%
421.875 -29.3352 79.6484%
437.5 -40.1889 31.4832%
2046.88 -40.3359 42.276%

-----
143.656 #292
-----
437.5 -34.6779 38.1329%
453.125 -30.1462 59.5679%
468.75 -32.3527 49.7229%
2000 -40.0164 30.9181%

-----
133.252 #293
-----
390.625 -29.4577 34.687%

-----
46.5459 #294
-----

-----
37.1812 #295
-----

-----
49.6653 #296
-----
