
-----
59.3285 #0
-----

-----
66.907 #1
-----
828.125 -35.0312 33.8546%
843.75 -35.1773 34.727%
875 -35.7057 33.8025%
890.625 -34.0947 40.8025%
1375 -40.1461 35.2216%
1390.62 -35.2933 53.9452%
2203.12 -40.495 31.0501%
2218.75 -35.3583 49.6694%

-----
71.2666 #2
-----
421.875 -34.6803 32.5526%
437.5 -27.7429 66.5444%
453.125 -31.5492 46.9105%
656.25 -31.7427 46.5846%
671.875 -33.6403 37.3301%
828.125 -35.34 34.3229%
843.75 -36.2389 32.3156%
875 -35.2941 36.8144%
1328.12 -40.5994 34.2735%
1390.62 -41.512 32.0011%
1765.62 -42.5548 32.5879%
2218.75 -37.3486 41.7318%

-----
89.2691 #3
-----
437.5 -26.9958 71.6533%
453.125 -28.9969 60.212%
656.25 -28.4275 63.8595%
671.875 -27.7806 66.7166%
1328.12 -38.3458 42.1288%
1343.75 -41.6186 31.1583%
1546.88 -42.3181 31.8139%
2203.12 -40.6335 30.5912%
2218.75 -34.3494 54.1789%
2234.38 -39.8042 32.9326%
2671.88 -42.1036 30.6008%

-----
81.0408 #4
-----
437.5 -30.9186 49.1798%
453.125 -31.8575 45.2129%
656.25 -26.5653 75.098%
671.875 -26.4226 75.0424%
875 -36.5573 31.9695%
890.625 -34.6183 40.0201%
1328.12 -40.5018 34.0868%
1781.25 -43.0675 30.835%
2218.75 -37.2097 41.9803%

-----
69.4882 #5
-----
312.5 -32.157 38.2226%
546.875 -32.9535 36.8793%
656.25 -32.8536 41.5858%
671.875 -32.1462 43.926%
875 -33.864 42.4878%
890.625 -30.1396 60.8746%
906.25 -34.1657 41.8778%
1421.88 -40.0737 35.3857%
1437.5 -41.2375 31.8046%
1453.12 -41.0466 32.5314%
1765.62 -42.5761 32.2147%
2000 -40.5598 37.8167%
2015.62 -41.7034 33.4564%

-----
64.113 #6
-----
531.25 -33.3289 34.4697%
546.875 -26.4345 70.6102%
562.5 -29.7148 52.3179%
656.25 -32.6197 42.4448%
671.875 -34.4686 33.932%
890.625 -35.5488 36.2439%
1984.38 -42.0428 32.8429%
2000 -41.5605 34.2702%
2015.62 -42.5621 30.5613%

-----
61.7424 #7
-----
437.5 -34.3243 33.2775%
656.25 -33.5911 37.7957%
1765.62 -39.2431 42.8106%
1781.25 -40.7743 37.2871%
2203.12 -37.7752 39.4594%
2218.75 -35.2239 49.3081%
2234.38 -38.8634 35.2343%
3812.5 -45.1718 30.0266%

-----
62.533 #8
-----
437.5 -30.2307 51.4078%
453.125 -33.2965 37.8197%
546.875 -31.9796 40.3669%
562.5 -32.3828 39.0404%
656.25 -32.7052 41.5335%
875 -30.7725 56.696%
890.625 -29.7387 62.9492%
2203.12 -40.3921 30.3581%

-----
80.1084 #9
-----
562.5 -34.4765 30.5529%
656.25 -30.1779 53.3354%
671.875 -31.733 44.5802%
875 -31.056 54.6337%
890.625 -29.8749 61.5286%
2218.75 -35.6004 47.9935%
2234.38 -40.2838 30.7416%

-----
57.5377 #10
-----
328.125 -33.7189 33.4852%
437.5 -31.6184 44.943%
453.125 -34.3035 33.92%
656.25 -30.0821 53.947%
671.875 -31.477 45.8465%
765.625 -34.7866 30.3228%
875 -33.22 44.3629%
890.625 -35.2846 36.5398%
2000 -42.495 31.0893%
2218.75 -40.0097 31.8804%

-----
80.0263 #11
-----
875 -35.423 35.1762%
890.625 -31.6379 52.0598%
1328.12 -39.9671 35.1783%
2656.25 -39.2224 37.168%
3109.38 -40.5163 33.6336%

-----
79.8247 #12
-----
437.5 -32.9241 38.1704%
453.125 -33.7757 35.0468%
875 -31.5975 51.9299%
890.625 -30.6528 57.2569%
2203.12 -37.7903 39.4453%
2218.75 -33.2648 58.5562%
2234.38 -39.7548 32.6716%
2437.5 -42.6385 30.3399%
2656.25 -38.224 40.749%
3093.75 -41.0306 31.5263%
3109.38 -38.5612 40.1004%

-----
65.7843 #13
-----
437.5 -31.2046 45.8245%
453.125 -34.5886 31.9022%
875 -34.0352 41.6139%
890.625 -30.78 57.3211%
1328.12 -37.9645 42.8302%
2203.12 -33.8879 55.1307%
2218.75 -30.8902 70.352%
2234.38 -39.3342 33.7428%

-----
55.4141 #14
-----
546.875 -32.2744 38.616%
828.125 -35.8336 31.3169%
1328.12 -41.8185 30.0627%
2203.12 -35.8528 46.167%
2218.75 -32.3381 62.1813%
2234.38 -36.7165 42.8854%
2250 -39.5982 32.6209%
3046.88 -37.7688 42.0961%
3062.5 -40.6928 31.5636%
3515.62 -42.0787 31.1562%
3531.25 -42.2243 30.7142%
3687.5 -40.1988 39.0377%
3703.12 -39.0969 43.7314%

-----
54.9987 #15
-----
562.5 -33.2641 34.718%
875 -36.2399 32.7039%
890.625 -35.0843 37.8002%
1125 -40.8105 30.104%
1656.25 -40.6917 32.4712%
1671.88 -40.9267 31.7792%
2203.12 -34.6549 50.9344%
2218.75 -31.2431 67.5813%
2234.38 -33.3509 57.0783%
2250 -36.4604 43.9129%
2531.25 -41.7242 30.0535%
3109.38 -40.8373 31.9827%
3687.5 -40.6703 37.1305%

-----
63.1019 #16
-----
546.875 -30.2844 48.3351%
562.5 -28.1849 59.9273%
656.25 -31.8446 44.859%
671.875 -32.0728 42.7955%
828.125 -35.3496 33.1198%
890.625 -35.4465 36.8866%
2218.75 -35.0018 49.9187%
2234.38 -35.7939 46.5918%
2250 -37.0088 41.982%
2609.38 -39.7394 35.9559%

-----
66.0025 #17
-----
546.875 -25.4295 76.7532%
562.5 -24.9691 80.6588%
656.25 -33.0605 40.073%
671.875 -32.1318 43.1228%
828.125 -34.2747 38.0595%
843.75 -33.5658 42.8594%
1390.62 -39.7534 37.7299%
2218.75 -38.1812 37.3796%
2234.38 -38.3341 36.8867%

-----
67.6576 #18
-----
546.875 -31.8917 40.853%
562.5 -30.644 47.0814%
656.25 -33.6545 37.507%
671.875 -33.1715 38.5836%
828.125 -34.0127 39.0562%
843.75 -35.7859 34.0214%
875 -35.4342 36.9384%
890.625 -34.1547 42.8676%
1546.88 -42.0783 30.1324%
1656.25 -39.7974 35.9541%
1671.88 -39.2933 37.9109%
2203.12 -34.2576 54.1641%
2218.75 -31.3879 68.5094%
2234.38 -40.4844 30.6367%
2609.38 -40.4506 33.7171%

-----
61.6531 #19
-----
828.125 -34.9165 35.5424%
843.75 -34.7136 38.3025%
875 -36.416 33.3908%
890.625 -32.3876 50.789%
1109.38 -39.502 35.3449%
1218.75 -41.1686 30.6662%
1328.12 -42.3953 30.0136%
1546.88 -40.8916 34.5467%
1656.25 -36.3412 49.4189%
1671.88 -35.6984 52.2148%
1765.62 -39.8235 42.1138%
1781.25 -39.5594 42.9025%
2203.12 -37.8389 40.6489%
2218.75 -39.7562 34.0555%

-----
68.7132 #20
-----
437.5 -33.8951 34.5992%
875 -33.4916 44.7046%
890.625 -31.6367 54.1471%
1218.75 -40.597 31.8551%
1328.12 -42.1169 30.3627%
1546.88 -41.2479 33.2946%
2203.12 -32.6495 62.8841%
2218.75 -29.411 81.0904%
2234.38 -37.9798 40.1718%

-----
82.2292 #21
-----
437.5 -28.6733 58.3842%
453.125 -30.9496 47.553%
546.875 -32.3392 38.4099%
562.5 -33.0321 35.8731%
656.25 -34.0421 35.5469%
671.875 -33.4699 37.0836%
875 -30.0567 60.4932%
890.625 -27.8925 74.1444%
1765.62 -42.9778 30.9624%
1781.25 -41.6389 35.1577%
2203.12 -35.2832 50.3378%
2218.75 -30.5693 73.9002%
2234.38 -38.0208 39.8222%

-----
72.4091 #22
-----
437.5 -32.8819 37.4829%
546.875 -31.4269 41.5242%
562.5 -31.7234 40.5127%
656.25 -33.5907 37.0764%
671.875 -34.1602 33.9027%
875 -33.3839 43.6853%
890.625 -30.7325 57.2441%
1109.38 -40.2724 31.512%

-----
65.0097 #23
-----
546.875 -30.4687 45.2223%
562.5 -32.1168 37.9743%
656.25 -29.5591 54.5812%
671.875 -29.2845 54.8644%
1781.25 -42.7673 30.0237%
2203.12 -38.42 37.5123%
2218.75 -36.9776 43.1516%
3812.5 -41.8051 41.8167%

-----
65.9557 #24
-----
437.5 -30.9443 45.086%
453.125 -33.4806 35.0055%
656.25 -32.1224 42.0109%
671.875 -34.1862 32.2802%
875 -33.2806 43.5948%
890.625 -32.8627 46.5548%
1765.62 -39.4731 40.4001%
1781.25 -41.3276 34.0255%
2218.75 -38.3874 37.5451%
3812.5 -41.3229 43.8565%

-----
90.2896 #25
-----
437.5 -29.3009 53.4325%
453.125 -32.0453 41.2339%
546.875 -32.7247 34.8709%
562.5 -33.776 30.9626%
656.25 -34.9069 30.9421%
765.625 -33.0363 35.79%
781.25 -33.3955 35.0443%
875 -30.8911 54.819%
890.625 -29.1588 65.2839%
1781.25 -42.2628 30.9443%
3265.62 -41.8308 31.4274%
3281.25 -39.6027 39.2914%

-----
72.3874 #26
-----
437.5 -29.0361 54.7182%
453.125 -31.3382 44.4381%
765.625 -32.4338 37.8988%
875 -33.0639 44.3682%
890.625 -33.1718 44.9632%
1765.62 -42.1102 31.5854%
1781.25 -40.1242 38.0318%

-----
70.7669 #27
-----
437.5 -33.2642 35.0694%
546.875 -33.6505 30.8394%
656.25 -34.5287 32.3069%
1765.62 -40.4734 37.1619%
1781.25 -39.1188 41.8915%
2203.12 -40.9013 30.1903%

-----
89.528 #28
-----
546.875 -31.8453 38.1263%
562.5 -31.8536 38.5078%
671.875 -34.4658 31.524%
875 -30.9999 55.1153%
890.625 -29.3463 64.9716%
1781.25 -40.9882 35.6165%

-----
132.887 #29
-----
546.875 -32.3625 35.5773%
562.5 -32.2303 36.5952%
656.25 -34.3782 32.5713%
671.875 -34.047 32.8849%
875 -27.7777 72.9375%
890.625 -25.7644 87.688%
906.25 -36.8251 31.6216%
1328.12 -38.6949 40.0519%
1546.88 -40.0552 35.372%
1562.5 -40.6977 33.813%
2218.75 -39.3858 34.892%
2437.5 -39.9711 37.3664%

-----
88.311 #30
-----
546.875 -32.594 34.5682%
562.5 -32.6608 34.7864%
656.25 -31.4998 44.7241%
671.875 -33.6695 34.4902%
875 -26.2198 83.3537%
890.625 -24.7761 95.3629%
906.25 -34.5403 40.4661%
1328.12 -41.3345 31.7859%
1546.88 -40.9214 33.0678%
2218.75 -38.5849 37.2174%
2656.25 -41.3328 31.2763%

-----
61.0353 #31
-----
546.875 -30.8949 42.1107%
562.5 -29.1425 51.2303%
656.25 -33.9737 33.7961%
671.875 -32.9903 36.9547%
875 -30.7569 56.1359%
890.625 -27.7425 74.3056%
906.25 -36.676 32.1893%
1109.38 -36.7529 44.8606%
1984.38 -42.6836 33.364%
2000 -42.8305 32.6602%
2781.25 -40.5332 34.8906%
3062.5 -41.8408 30.7842%
3109.38 -41.2149 33.1821%

-----
52.3417 #32
-----
437.5 -33.6236 32.4835%
875 -32.2226 48.9352%
890.625 -30.8085 56.86%
1109.38 -37.0156 43.5434%
1125 -37.8132 41.3248%
2203.12 -35.9163 46.9766%
2218.75 -34.5759 52.4737%
2671.88 -41.5691 30.6067%

-----
59.6835 #33
-----
875 -31.2622 53.5677%
890.625 -29.5731 63.5276%
1406.25 -41.2805 32.159%
2203.12 -38.6155 36.3289%
2218.75 -34.9329 50.3356%

-----
67.7501 #34
-----
562.5 -32.9791 33.9246%
828.125 -34.349 35.0867%
843.75 -34.6039 36.0722%
875 -34.8043 37.906%
890.625 -30.8504 56.762%
1109.38 -38.6519 36.92%
1656.25 -41.1102 31.7135%
1671.88 -40.0235 35.6602%
2203.12 -36.8222 43.8803%
2218.75 -34.9251 51.3224%
2234.38 -39.6677 32.9187%
2281.25 -40.0821 31.426%
2843.75 -42.1317 30.757%

-----
63.3032 #35
-----
437.5 -30.7529 45.6348%
453.125 -32.5762 38.5785%
828.125 -35.6398 30.1638%
1109.38 -39.4794 34.2155%
2203.12 -35.573 49.821%
2218.75 -31.5702 68.4141%
2234.38 -35.8211 47.9549%
2671.88 -40.6916 33.3316%

-----
86.1658 #36
-----
437.5 -29.8098 50.5322%
453.125 -31.7403 42.4692%
656.25 -32.8121 38.5201%
671.875 -31.7602 42.4421%
890.625 -37.2118 30.5054%
1218.75 -40.2205 32.1148%
1234.38 -39.2771 35.2326%

-----
90.972 #37
-----
437.5 -31.5618 41.5255%
453.125 -33.6593 33.717%
656.25 -28.1848 60.8575%
671.875 -27.3 65.3961%
1984.38 -42.4079 35.0886%
2000 -40.3942 41.7784%
2218.75 -37.8209 40.8572%

-----
74.5401 #38
-----
437.5 -32.803 36.5254%
656.25 -27.4201 65.2329%
671.875 -27.8188 62.1216%
1109.38 -37.5164 39.9185%
1328.12 -41.5069 30.4124%
2203.12 -38.2226 39.4364%
2218.75 -34.893 52.3427%
2437.5 -41.3718 31.6445%
2656.25 -39.2043 37.5749%
2671.88 -38.8585 39.0748%

-----
65.8969 #39
-----
437.5 -31.4353 42.4999%
453.125 -32.4645 39.0783%
546.875 -27.881 56.8111%
562.5 -29.6822 47.8425%
875 -33.3981 43.5511%
890.625 -28.3271 70.1528%
906.25 -34.7903 38.5127%
2203.12 -39.268 35.1244%
2218.75 -37.8799 39.6982%

-----
60.3601 #40
-----
546.875 -31.1015 40.4948%
562.5 -30.1605 45.4271%
875 -30.3359 57.727%
890.625 -29.1656 65.0925%
1562.5 -40.576 35.648%
2000 -42.2482 34.1892%
2015.62 -41.5717 35.6597%

-----
75.7096 #41
-----
562.5 -33.3727 31.9184%
656.25 -33.7592 34.3439%
765.625 -33.7337 32.6626%
875 -32.6853 47.1252%
890.625 -31.564 53.3186%
1218.75 -40.4683 30.4892%
2000 -40.8371 39.1267%
2015.62 -42.6705 32.4437%
2203.12 -36.7307 43.8155%
2218.75 -33.6237 56.5955%
2234.38 -37.9703 38.1748%

-----
66.9104 #42
-----
546.875 -31.9563 38.2191%
562.5 -32.5486 36.2326%
656.25 -29.7225 53.5404%
671.875 -30.0124 50.8024%
765.625 -33.2807 34.847%
875 -36.2279 32.9014%
890.625 -35.471 36.5608%
1328.12 -41.1981 31.7606%
2218.75 -35.7276 47.6341%
2234.38 -39.7526 32.1641%

-----
62.6592 #43
-----
437.5 -33.7494 35.0236%
546.875 -32.3748 36.6163%
562.5 -31.7741 39.823%
656.25 -31.6758 44.0965%
671.875 -32.4621 39.4995%
765.625 -34.4548 30.4461%
2203.12 -39.8873 33.145%
2218.75 -39.247 34.8824%

-----
67.3751 #44
-----
656.25 -30.8559 47.9048%
671.875 -32.2059 40.5924%
890.625 -33.8311 43.1855%
1328.12 -40.8367 32.6558%

-----
94.6187 #45
-----
437.5 -33.1802 36.9513%
656.25 -29.2833 55.0589%
671.875 -29.8528 50.9938%
875 -33.6703 42.6502%
890.625 -32.3048 49.5378%
1328.12 -40.8576 32.0137%
2203.12 -35.2689 50.7649%
2218.75 -32.1484 64.967%
2234.38 -40.1624 31.4743%

-----
101.002 #46
-----
437.5 -30.2257 50.7362%
453.125 -34.3238 33.7272%
546.875 -33.1731 33.5727%
562.5 -33.2746 33.664%
875 -28.3065 69.0482%
890.625 -27.2253 76.6986%
1328.12 -40.3507 33.5741%
2203.12 -40.0686 32.8555%
2218.75 -34.9436 51.8979%
2437.5 -38.9336 38.8766%
2656.25 -40.8725 31.3489%

-----
63.3193 #47
-----
421.875 -30.2153 49.1779%
437.5 -29.1772 56.3183%
453.125 -34.1519 34.5622%
546.875 -31.5812 40.6654%
562.5 -30.5906 45.8174%
875 -33.9829 40.8129%
890.625 -30.236 59.0341%
968.75 -36.3971 33.4608%
1109.38 -38.0582 38.5441%
1250 -39.2701 34.4911%
1328.12 -40.9695 32.2861%
2218.75 -40.0465 32.0514%
3687.5 -42.5929 31.3327%

-----
64.1105 #48
-----
546.875 -31.5455 40.9838%
562.5 -30.6457 45.7622%
1250 -40.0615 32.1812%
2203.12 -37.22 41.7561%
2218.75 -35.3544 48.9893%
2515.62 -39.3712 35.0585%

-----
75.8264 #49
-----
421.875 -33.904 33.6274%
656.25 -32.8535 38.0997%
828.125 -34.9289 30.7213%
875 -35.8081 32.1103%
890.625 -34.6711 37.2683%
1250 -40.3397 31.2156%
1656.25 -39.325 39.1262%
1671.88 -38.4722 42.3704%

-----
90.5124 #50
-----
656.25 -33.3601 35.932%
671.875 -34.1701 31.9754%
828.125 -32.1781 42.2675%
843.75 -31.4714 47.629%
1390.62 -41.1711 31.7921%
1406.25 -41.6619 30.3017%
1671.88 -36.4161 50.8629%
1687.5 -41.144 33.4508%
2218.75 -35.9811 46.2795%
2500 -40.6066 32.5432%
2515.62 -40.5672 32.0145%
3390.62 -41.8674 30.1728%

-----
88.5345 #51
-----
828.125 -32.818 40.1802%
843.75 -33.8533 37.9988%
1109.38 -34.1702 54.4207%
1125 -37.563 41.4886%
1656.25 -39.0896 40.472%
1671.88 -37.7101 46.0303%
1953.12 -43.0221 30.7816%
2203.12 -37.1867 42.3749%
2218.75 -33.6053 57.4401%
2234.38 -39.9731 31.9294%

-----
66.4336 #52
-----
828.125 -32.1787 43.5958%
843.75 -32.749 43.1743%
890.625 -35.0472 37.0195%
1656.25 -39.4188 39.3222%
1671.88 -42.0402 30.9361%
1765.62 -40.1984 38.9723%
1781.25 -38.1304 46.1813%

-----
75.0917 #53
-----
437.5 -33.1864 39.7239%
453.125 -35.0333 33.0033%
546.875 -32.4951 38.1289%
875 -31.0692 54.1516%
890.625 -30.5913 57.4186%
1109.38 -39.329 34.0044%
1328.12 -36.0377 49.6522%
1343.75 -40.7359 32.084%

-----
77.8436 #54
-----
437.5 -31.3535 47.8804%
453.125 -34.3235 35.7165%
546.875 -30.253 48.6046%
562.5 -31.1851 44.6856%
875 -32.7878 45.8572%
890.625 -30.9472 55.4725%
1312.5 -38.3004 41.1714%
1328.12 -38.3194 40.8441%
2203.12 -39.3018 35.082%
2218.75 -36.2505 46.3652%

-----
76.2125 #55
-----
546.875 -30.8787 45.381%
562.5 -29.491 52.7715%
656.25 -31.4901 46.1674%
671.875 -31.2747 46.2504%
765.625 -34.7004 30.3087%
890.625 -36.2485 33.2683%
1312.5 -39.4419 37.3727%
1328.12 -38.4101 40.7176%
2000 -42.656 30.4141%

-----
58.1961 #56
-----
437.5 -28.4089 62.6917%
453.125 -30.697 51.3803%
546.875 -32.9071 36.5892%
562.5 -32.5923 38.3963%
656.25 -31.6099 46.0749%
671.875 -32.4192 41.4541%
875 -29.3946 63.8474%
890.625 -27.6776 75.1209%
1000 -36.1833 37.6154%
2218.75 -39.5063 33.8323%

-----
60.9452 #57
-----
437.5 -27.6896 66.7543%
453.125 -30.0177 54.786%
656.25 -31.9013 45.1202%
671.875 -33.6188 36.6971%
875 -28.3577 69.4746%
890.625 -27.5127 75.8032%
1000 -37.3307 33.071%
1546.88 -39.1962 39.3456%
1562.5 -40.8092 34.3296%
1765.62 -40.8979 36.0188%
2125 -39.8811 32.2735%
2218.75 -40.2473 31.1179%
2234.38 -39.9114 31.7535%

-----
72.353 #58
-----
437.5 -30.4976 52.0494%
453.125 -32.971 41.5945%
656.25 -30.571 52.2985%
671.875 -31.7421 45.4521%
765.625 -31.5913 44.7128%
781.25 -31.3666 46.5755%
875 -34.5859 39.4577%
890.625 -34.3531 41.3173%
1218.75 -39.8321 33.0941%
1546.88 -39.3779 39.0201%

-----
57.2364 #59
-----
437.5 -35.0245 32.6326%
656.25 -30.324 54.2141%
671.875 -32.6127 42.217%
765.625 -32.6482 40.3781%
781.25 -33.6428 36.9888%
875 -33.1661 45.7394%
890.625 -32.392 50.0823%
1312.5 -39.8471 35.7904%
1328.12 -35.8644 50.4757%
1546.88 -41.5552 32.1144%
2218.75 -40.6713 30.6173%
2437.5 -39.6143 36.3214%

-----
61.7425 #60
-----
437.5 -34.7967 33.3696%
656.25 -31.2938 49.8166%
671.875 -33.7296 37.8824%
890.625 -36.2715 34.3536%
1328.12 -37.5255 43.7213%
2015.62 -42.5413 30.3108%
2218.75 -39.5318 34.8529%

-----
69.373 #61
-----
656.25 -34.2374 36.5539%
671.875 -31.573 47.0886%
875 -30.7711 57.6283%
890.625 -30.3182 60.8767%
2000 -39.8847 38.6919%
2015.62 -41.0481 34.7952%
2234.38 -38.4898 38.3054%
2250 -39.1031 36.307%

-----
66.1046 #62
-----
437.5 -29.5859 53.3821%
453.125 -32.8283 39.003%
875 -32.2729 49.826%
890.625 -30.656 58.422%
1328.12 -35.3063 50.2163%
1343.75 -39.2872 34.6246%
1984.38 -39.793 38.341%
2000 -39.7575 38.4074%

-----
65.7809 #63
-----
437.5 -30.4149 48.8227%
453.125 -32.8115 38.7394%
875 -34.0246 42.4337%
890.625 -32.9212 47.8363%
1328.12 -37.651 40.5358%
2203.12 -40.7106 30.6887%

-----
73.6198 #64
-----
437.5 -32.9002 37.7931%
453.125 -34.8484 30.6716%
546.875 -28.6158 55.916%
562.5 -27.3476 63.9874%
875 -34.9129 39.0459%
890.625 -34.5878 40.8807%
1109.38 -36.9357 41.3183%
2218.75 -38.6783 36.9135%
2234.38 -37.6147 40.717%
2781.25 -40.5422 33.8692%

-----
63.5238 #65
-----
437.5 -33.4956 36.0869%
546.875 -29.1914 53.7175%
562.5 -27.6491 63.0071%
656.25 -33.2113 40.7297%
671.875 -33.9063 37.0067%
1109.38 -35.4126 46.822%
1125 -36.4116 43.1894%

-----
69.3988 #66
-----
437.5 -33.4516 36.6603%
546.875 -33.9459 32.7821%
656.25 -34.3709 37.0007%
671.875 -35.3527 32.3222%
828.125 -35.7213 34.5721%
1218.75 -36.9702 41.9026%
1671.88 -41.0527 34.1275%

-----
67.5299 #67
-----
437.5 -31.2505 45.8222%
562.5 -33.0406 36.9109%
828.125 -30.9148 56.186%
843.75 -31.9474 52.6365%
875 -37.0178 32.1046%
890.625 -34.864 40.831%
1218.75 -39.9949 30.9374%
2781.25 -39.4596 37.4465%

-----
63.7555 #68
-----
437.5 -33.4261 36.0597%
562.5 -33.9819 32.7779%
828.125 -34.1134 41.9401%
843.75 -35.688 37.1071%
1109.38 -37.4486 39.7237%
1125 -39.0298 34.1734%

-----
73.5587 #69
-----
437.5 -34.8184 30.4912%
656.25 -33.0038 43.1835%
671.875 -34.4447 36.0338%
875 -34.264 43.9529%
890.625 -32.5015 52.2525%
1109.38 -37.4138 39.703%
1218.75 -38.8728 34.5705%
2250 -40.8325 31.386%
2468.75 -40.9426 31.3687%
2484.38 -40.6212 32.4928%
3171.88 -40.4817 30.897%
3765.62 -41.4688 38.6597%
3781.25 -41.3149 40.1152%

-----
73.5103 #70
-----
546.875 -33.3087 34.8514%
562.5 -33.8178 33.4701%
875 -31.2526 58.1849%
890.625 -32.1737 54.0353%

-----
76.4442 #71
-----
421.875 -32.1504 39.0834%
437.5 -26.8207 68.3403%
453.125 -31.0044 46.8318%
546.875 -32.8121 36.6476%
562.5 -34.4082 31.1159%
656.25 -33.0463 43.9946%
671.875 -36.167 30.2205%

-----
60.4665 #72
-----
421.875 -32.9229 34.6963%
437.5 -29.2912 52.9179%
562.5 -29.6827 51.3616%
578.125 -32.1361 41.0686%
828.125 -32.125 51.5535%
843.75 -36.0861 36.6949%
1218.75 -39.435 31.6899%
1250 -31.5458 62.7511%
1265.62 -33.9373 51.9312%
1421.88 -37.2883 42.2119%
1437.5 -35.0764 51.9415%
1453.12 -35.9164 49.0018%
1468.75 -38.7715 38.0952%
1656.25 -35.5299 52.2681%
1671.88 -34.1234 58.9747%
1687.5 -39.6592 36.5597%
2921.88 -40.1569 32.7169%
2937.5 -38.7419 37.6987%
3312.5 -39.3823 33.951%

-----
57.632 #73
-----
437.5 -32.4771 37.0262%
546.875 -34.0326 30.9498%
562.5 -31.8488 40.8697%
656.25 -35.3895 34.379%
671.875 -34.8284 34.94%
843.75 -31.3123 57.5925%
859.375 -28.6292 72.7766%
875 -32.4847 52.6233%
1390.62 -39.0205 34.8499%
1406.25 -37.0539 42.5964%
1421.88 -38.471 37.9221%
1671.88 -40.6942 33.1831%

-----
83.0755 #74
-----
437.5 -33.038 34.769%
546.875 -32.7432 36.2302%
562.5 -34.2628 31.1505%
812.5 -34.0269 41.0283%
875 -33.9909 45.8463%
890.625 -32.2037 54.2069%
1093.75 -40.229 30.0841%
1109.38 -35.5276 46.8926%
1125 -38.3126 36.0408%
1250 -36.6089 39.6746%
1265.62 -38.8629 31.8064%
1375 -36.7805 42.3997%
1390.62 -38.6305 35.9945%
1656.25 -38.7311 39.4563%
1671.88 -41.6273 30.1675%
2484.38 -39.3326 35.4991%

-----
62.1066 #75
-----
828.125 -32.4045 50.8371%
843.75 -37.3157 32.747%
1656.25 -38.2207 41.3763%
2500 -40.6259 31.3665%
2921.88 -38.496 38.475%

-----
81.9565 #76
-----
812.5 -37.0234 30.007%
828.125 -33.9841 43.7265%
843.75 -33.7732 46.5676%
1234.38 -38.28 34.3347%
1250 -33.4479 52.6583%
1265.62 -37.6037 35.7362%
1640.62 -40.2906 32.9994%
1656.25 -36.8813 46.0066%

-----
72.9337 #77
-----
421.875 -31.5666 39.7918%
437.5 -32.263 37.5194%
828.125 -35.4217 37.7815%
843.75 -36.1262 36.8063%
1109.38 -39.7295 30.7636%
1250 -38.4746 33.2784%
1265.62 -39.3523 30.091%
1656.25 -39.1237 36.6568%

-----
90.8496 #78
-----
546.875 -26.4371 67.6798%
562.5 -23.3021 91.8853%
578.125 -31.7327 42.43%
828.125 -34.0255 42.824%
843.75 -37.0075 32.9078%
1109.38 -38.2431 35.2526%
1656.25 -38.9047 36.4459%
1671.88 -40.0621 32.8441%
1968.75 -34.136 62.156%
1984.38 -28.7563 91.7486%
2000 -33.3204 65.2145%
2531.25 -38.7631 37.2825%
2546.88 -31.536 68.4552%
2562.5 -34.7482 51.8586%
3390.62 -36.2043 44.2985%
3406.25 -39.0274 33.6592%
3671.88 -38.5864 41.7454%
3687.5 -41.3796 32.8373%

-----
87.5183 #79
-----
671.875 -34.9486 32.382%
828.125 -36.4773 32.9202%
890.625 -37.4989 30.8664%
1656.25 -40.094 31.9591%
1703.12 -40.7599 30.5854%
1953.12 -36.7487 50.073%
1968.75 -30.3259 81.2862%
1984.38 -34.0545 60.8376%
2265.62 -41.2487 30.5918%
2281.25 -38.1399 41.8447%
2546.88 -35.4341 48.8257%
2562.5 -34.9805 49.7726%
2578.12 -37.4545 39.8044%
3406.25 -39.9814 30.2155%
3421.88 -39.2001 33.0148%
3437.5 -39.393 32.3997%

-----
66.1558 #80
-----
421.875 -33.0795 33.2326%
437.5 -29.1927 51.4266%
656.25 -30.4132 54.3124%
671.875 -30.565 51.2184%
875 -32.9094 48.7556%
890.625 -29.2654 67.2536%
1125 -36.0843 42.8979%
1140.62 -39.7524 30.0931%
1328.12 -39.5132 31.1765%
1359.38 -38.8514 33.4291%
1375 -34.6929 49.8388%
1390.62 -33.1642 57.0728%
1406.25 -32.3382 61.879%
1421.88 -36.9685 42.9646%
1703.12 -38.7943 36.9377%
1718.75 -39.2507 36.2235%
1765.62 -39.295 36.404%
1781.25 -40.6884 31.2462%
1968.75 -39.2321 38.7671%
1984.38 -39.987 35.5189%
2546.88 -39.3754 33.2044%
3812.5 -43.7035 32.9144%

-----
66.2528 #81
-----
437.5 -27.279 62.8586%
453.125 -30.3123 47.4979%
546.875 -31.9918 39.5167%
562.5 -28.4546 58.1125%
578.125 -34.7819 30.3004%
656.25 -34.7689 34.6724%
828.125 -36.6758 31.4869%
843.75 -34.3405 42.2459%
875 -27.9606 74.4644%
890.625 -27.5806 76.9404%
906.25 -37.3622 31.2293%
1765.62 -41.2454 30.1121%
2515.62 -37.9893 37.3398%
2531.25 -36.4329 43.1732%

-----
68.4645 #82
-----
421.875 -33.9673 31.7684%
437.5 -26.4443 69.5614%
453.125 -29.8785 51.0573%
562.5 -31.4621 44.4383%
578.125 -34.0109 34.4021%
828.125 -32.5029 48.15%
843.75 -26.1058 86.7568%
859.375 -30.7541 58.8225%
875 -37.0094 31.5643%
890.625 -34.1203 42.8159%

-----
76.8171 #83
-----
421.875 -34.1471 31.6831%
437.5 -27.9616 61.0449%
453.125 -31.0389 46.0187%
546.875 -33.824 34.2409%
562.5 -29.8473 53.0415%
578.125 -31.3053 46.6017%
843.75 -31.6341 54.1481%
859.375 -28.4898 71.5748%
890.625 -29.6616 64.8276%

-----
67.5293 #84
-----
437.5 -31.4947 43.5958%
546.875 -35.11 30.3242%
562.5 -29.9382 53.9036%
578.125 -26.2504 76.1405%
593.75 -32.1068 44.8538%
890.625 -34.3616 42.1687%
1156.25 -34.0296 53.2941%
1171.88 -32.1397 61.6525%
1187.5 -34.334 51.9529%
1203.12 -37.9672 38.0802%
1218.75 -39.6793 32.1724%
1328.12 -39.7121 32.0799%
2593.75 -37.5935 37.5871%

-----
82.0248 #85
-----
546.875 -33.452 37.5905%
562.5 -25.12 84.5196%
578.125 -26.5716 74.7294%
593.75 -34.8411 33.7384%
828.125 -29.4912 63.5113%
843.75 -33.9697 43.6142%
1234.38 -40.4623 30.1616%
1250 -33.6163 55.3566%
1421.88 -36.5529 46.2633%
1437.5 -35.4629 51.313%
1656.25 -40.7734 30.4761%
2546.88 -38.2708 35.9799%
2562.5 -37.9838 36.5111%
2921.88 -39.011 38.7081%
3312.5 -40.8059 31.6218%
3328.12 -38.1844 40.7923%

-----
79.3807 #86
-----
437.5 -31.3784 44.8936%
453.125 -34.77 31.5684%
562.5 -24.555 88.4909%
578.125 -24.7294 87.1522%
828.125 -31.1119 54.1306%
843.75 -32.5648 49.0998%
1250 -40.1642 30.3999%
1421.88 -38.5399 38.5385%
1656.25 -37.3863 41.8434%
1671.88 -33.842 57.6009%
1703.12 -32.6855 63.6704%
1718.75 -37.1212 44.4839%
2531.25 -35.8076 45.8898%
2546.88 -34.8609 49.3373%

-----
68.0138 #87
-----
437.5 -32.5738 39.1576%
562.5 -24.7515 86.0099%
578.125 -26.4924 73.6663%
593.75 -34.9421 31.7246%
828.125 -32.7264 45.934%
1656.25 -39.5615 33.511%
1671.88 -37.8991 40.2167%
1687.5 -38.0365 40.2405%
1703.12 -40.0169 33.3136%
1828.12 -40.9691 30.8137%
2515.62 -38.853 34.0578%
2531.25 -38.4295 35.3054%

-----
73.1864 #88
-----
562.5 -28.7891 59.4988%
578.125 -31.5208 45.4073%
750 -34.7532 32.3171%
796.875 -34.1699 36.7178%
812.5 -33.3686 40.7129%
1687.5 -40.1292 33.5238%
1937.5 -36.624 49.421%
1953.12 -30.8287 77.5574%
1968.75 -36.6657 48.7155%
2234.38 -37.0282 41.0357%
2250 -37.6195 38.8879%
2265.62 -38.4294 36.1413%
2281.25 -35.5712 47.4399%
2609.38 -38.7823 34.0533%

-----
71.7011 #89
-----
734.375 -31.573 43.8319%
750 -33.1099 38.6262%
1906.25 -41.6537 31.6775%
1921.88 -37.5967 45.6114%
1937.5 -39.2731 39.3876%
2093.75 -32.1102 62.6352%
2109.38 -27.7868 87.3712%
2125 -31.3682 65.4387%
2140.62 -38.4912 34.9083%
2156.25 -39.8755 30.5017%
2234.38 -33.6296 54.7915%
2250 -33.1285 57.2707%
2265.62 -38.0635 37.0045%
2281.25 -39.3311 32.82%
2390.62 -38.376 36.0871%
2406.25 -33.585 56.2034%
2421.88 -35.9873 46.1094%
2593.75 -39.8364 30.7092%

-----
69.2413 #90
-----
375 -33.9762 36.3863%
734.375 -29.5897 52.9773%
750 -29.2968 56.2252%
1484.38 -40.1422 34.0255%
1859.38 -41.1043 32.2482%
2093.75 -34.3091 52.9159%
2125 -37.5343 38.8928%
2140.62 -38.7415 34.5545%
2171.88 -33.6984 55.3865%
2187.5 -32.993 58.5076%
2203.12 -35.1304 48.8127%
2218.75 -37.8853 37.9746%
2234.38 -34.9279 49.7096%
2250 -35.114 49.029%
2468.75 -37.6256 39.7321%
2484.38 -34.1395 53.7909%
2500 -35.5342 47.5559%

-----
89.2405 #91
-----
375 -33.537 38.54%
734.375 -32.9182 37.3947%
750 -34.0819 34.259%
1859.38 -41.1295 33.0686%
1875 -40.047 37.3821%
2156.25 -38.9604 34.2531%
2171.88 -29.7307 76.223%
2187.5 -26.6904 96.0752%
2203.12 -34.303 52.4299%
2234.38 -34.6364 51.0358%
2250 -33.3715 57.0036%
2484.38 -34.1757 53.5879%
2500 -32.3256 62.222%
2515.62 -36.9301 41.9853%
3421.88 -40.5815 33.3468%
3437.5 -40.7607 33.0806%
3750 -44.0372 30.2804%

-----
50.3379 #92
-----
734.375 -30.8089 47.1114%
750 -29.904 53.3854%

-----
56.2888 #93
-----
375 -33.2486 40.4226%
750 -35.1347 30.6504%
1109.38 -38.464 34.6848%
1125 -37.4701 38.7311%
1875 -41.7513 32.4068%

-----
90.3839 #94
-----
359.375 -35.4273 30.6578%
375 -31.9957 45.2699%
734.375 -34.1025 31.9695%
750 -29.9153 52.3624%
1687.5 -39.0763 38.1135%

-----
57.4042 #95
-----
734.375 -30.9375 45.4493%
750 -27.8417 63.505%
1875 -40.8271 34.0549%

-----
57.814 #96
-----
734.375 -33.018 36.2105%
750 -32.6499 39.2664%

-----
58.7278 #97
-----
437.5 -30.7361 46.3165%
453.125 -33.191 35.8938%
562.5 -30.2956 49.335%
656.25 -30.0993 48.9164%
671.875 -30.8122 44.0753%
890.625 -35.0139 34.5361%
1765.62 -40.7548 32.5568%
2218.75 -36.6671 41.2047%

-----
50.5899 #98
-----
437.5 -33.1629 36.2865%
546.875 -31.7721 42.2211%
562.5 -29.2323 54.8556%
656.25 -31.8677 40.1275%
671.875 -31.5701 40.2613%
875 -32.9537 42.1064%
890.625 -30.9557 52.5025%
1109.38 -38.7949 34.712%
2203.12 -39.5406 31.3885%
2218.75 -35.4762 46.1957%

-----
63.2744 #99
-----
437.5 -32.6168 39.2437%
453.125 -32.2965 40.7423%
546.875 -34.1957 32.5195%
562.5 -29.6106 53.4441%
875 -30.9432 51.8169%
890.625 -28.1737 68.0977%
1500 -41.1091 30.0453%
2218.75 -38.9615 33.3867%

-----
65.4325 #100
-----
375 -34.6083 33.2833%
437.5 -32.232 41.0564%
546.875 -32.3847 39.6868%
562.5 -30.0495 50.9427%
656.25 -29.0369 54.2922%
671.875 -31.1183 42.7813%
875 -32.9515 42.3423%
890.625 -31.632 49.5745%

-----
74.8695 #101
-----
453.125 -32.1322 41.5429%
468.75 -33.3295 36.2877%
546.875 -28.3233 59.3662%
562.5 -27.413 65.0783%
656.25 -33.3922 33.7781%
750 -30.6258 47.2061%
937.5 -38.4027 30.4058%
2218.75 -39.2058 34.1644%

-----
79.9076 #102
-----
546.875 -29.2928 53.1429%
562.5 -27.4341 63.9705%
656.25 -29.5586 50.7332%
750 -33.1882 35.6248%

-----
75.1069 #103
-----
562.5 -29.1555 53.1905%
750 -33.1252 35.3871%
890.625 -36.252 30.6451%
937.5 -36.8531 35.274%

-----
64.1815 #104
-----
359.375 -34.2704 33.3776%
375 -31.3444 46.6887%
468.75 -32.0882 39.8639%
484.375 -30.7436 44.5122%
593.75 -31.8251 35.4181%
609.375 -29.9321 43.812%
625 -31.2695 39.2607%
640.625 -33.4835 31.4425%
1328.12 -39.4596 35.9179%
1546.88 -39.2255 34.259%

-----
59.1325 #105
-----
468.75 -32.8407 36.3702%
625 -32.6655 32.7602%
640.625 -28.5969 53.3094%
734.375 -31.9336 39.0956%
750 -29.4188 52.2068%
1125 -36.4597 43.2242%
1500 -40.5278 30.9712%
1578.12 -40.4306 30.8483%
1593.75 -33.952 55.5744%
1609.38 -36.7723 42.7703%
1875 -41.3505 33.3033%
1890.62 -41.7904 31.9646%
2218.75 -40.7392 30.4126%
2625 -40.743 30.4759%
3000 -37.4186 45.418%
3015.62 -41.71 30.4016%
3828.12 -44.8851 30.3349%

-----
86.7585 #106
-----
468.75 -33.6619 32.6884%
625 -32.8451 32.0247%
640.625 -30.075 45.7637%
734.375 -32.4355 37.0356%
750 -27.5223 62.8628%
765.625 -33.6635 32.3889%
1125 -38.1056 36.952%
1593.75 -37.5449 40.7746%
2218.75 -38.5886 37.705%
2234.38 -34.1106 56.1183%
2250 -32.541 63.8501%
2265.62 -39.9233 33.2304%
2546.88 -38.486 37.6125%
3828.12 -42.0571 38.9376%

-----
87.725 #107
-----
375 -33.8482 35.1347%
625 -29.3853 47.0691%
640.625 -29.1121 50.1724%
734.375 -32.4753 36.8833%
750 -26.9323 66.4597%
765.625 -34.1123 30.586%
1484.38 -36.5592 43.7971%
1500 -34.6715 52.5054%
1578.12 -32.6525 62.1892%
1593.75 -32.8831 60.7562%
2609.38 -38.0589 38.4846%
2843.75 -42.065 30.2451%
2859.38 -41.5414 31.8432%
3812.5 -42.5032 36.3059%

-----
83.2123 #108
-----
468.75 -33.9424 31.0109%
625 -28.3244 52.7074%
640.625 -29.9441 46.2405%
734.375 -28.3607 56.9444%
750 -26.9832 66.2943%
1531.25 -37.691 40.001%
1546.88 -31.6162 66.7896%
1562.5 -36.0747 46.5653%
2218.75 -38.1601 39.5017%
2250 -39.1936 36.093%
2984.38 -40.135 35.7536%
3000 -40.1028 36.0033%

-----
66.1829 #109
-----
375 -32.2878 41.7302%
640.625 -32.996 32.6674%
734.375 -30.5645 45.646%
750 -27.6286 62.2941%
1515.62 -39.4891 33.842%
1531.25 -35.6104 48.3912%
2218.75 -37.4433 42.7505%

-----
107.405 #110
-----
375 -33.6179 35.9014%
625 -31.0215 39.2831%
734.375 -29.0732 52.4555%
750 -25.7619 73.2724%
765.625 -33.8768 30.6411%
1875 -35.4956 56.4301%
1890.62 -31.6491 75.451%
1906.25 -38.783 43.1851%
2218.75 -38.6872 38.2337%
2500 -37.6167 40.8541%
2515.62 -37.2647 41.8653%
2609.38 -37.0452 41.9069%
2625 -40.4189 30.1996%
2984.38 -41.5343 30.4042%
3000 -39.9156 35.9972%
3375 -41.388 33.2205%
3765.62 -43.41 31.598%

-----
81.7424 #111
-----
734.375 -29.0251 52.2532%
750 -26.5386 67.6149%
1843.75 -38.2467 44.0558%
1859.38 -30.0351 84.0882%
1875 -33.5791 64.9333%
2171.88 -35.5758 50.4538%
2187.5 -40.2995 32.5515%
2203.12 -36.0002 48.1679%
2218.75 -32.3247 64.9402%
2234.38 -37.9461 40.3272%
2468.75 -38.8733 37.4155%
2484.38 -33.256 59.8932%
2500 -38.0883 38.8195%
2609.38 -36.4559 44.2508%
2625 -38.9217 35.1916%
2984.38 -38.834 38.7327%
3000 -41.3593 30.5241%
3109.38 -41.1843 31.6361%
3718.75 -40.8161 35.9298%
3734.38 -38.7663 43.9647%

-----
70.5478 #112
-----
359.375 -32.6544 38.6468%
375 -29.5589 54.6713%
625 -33.3242 30.1193%
1546.88 -39.3078 32.8675%
1562.5 -36.8005 42.4657%
1828.12 -41.8058 30.8071%
1843.75 -41.2508 32.9218%
1859.38 -35.148 56.5811%
1875 -35.7865 54.1186%
2171.88 -39.9964 33.8384%
2187.5 -37.8936 41.012%
2203.12 -37.3624 42.7776%
2218.75 -36.4922 46.0651%
2468.75 -38.6541 38.1152%
2484.38 -37.6672 41.0505%
2500 -37.0128 42.7468%
2609.38 -39.4424 33.4104%
3062.5 -40.795 32.355%
3703.12 -39.1151 40.5649%
3718.75 -40.2709 37.2563%

-----
59.743 #113
-----
625 -27.2436 59.5685%
640.625 -30.9383 41.5046%
937.5 -33.864 43.4377%
953.125 -37.0287 30.8619%
1546.88 -32.711 58.8136%
1562.5 -34.2886 52.0571%
1828.12 -39.5474 37.8163%
1843.75 -39.9248 36.8415%
2484.38 -36.5859 45.0717%
2500 -34.7048 52.1031%
2515.62 -38.577 36.7738%
3000 -37.8037 42.0135%
3281.25 -41.7276 30.2105%
3328.12 -40.8091 33.4774%
3734.38 -42.3927 30.6883%
3750 -40.5595 37.929%

-----
70.8175 #114
-----
625 -28.263 54.2754%
640.625 -29.3979 49.308%
656.25 -28.4488 54.6542%
671.875 -29.1161 49.9823%
750 -33.3501 31.91%
1000 -35.0947 37.8828%
1250 -35.4884 39.6582%
1265.62 -37.3079 33.0476%
2218.75 -40.7186 30.8969%
2656.25 -39.5049 33.0226%
2671.88 -40.1546 31.788%
3750 -41.9726 33.5158%
3765.62 -40.8309 38.6144%
3781.25 -42.7271 33.409%

-----
67.6748 #115
-----
640.625 -33.264 32.448%
656.25 -27.5732 60.0622%
671.875 -30.5603 43.3171%
750 -32.4357 36.1219%
1328.12 -36.4142 40.1279%
2250 -38.3417 38.9109%
2312.5 -40.3705 30.8939%
2328.12 -39.0943 34.597%
3312.5 -40.946 32.3373%

-----
71.1423 #116
-----
562.5 -30.2227 48.9419%
671.875 -32.5261 34.9115%
1000 -36.0221 34.3207%
2312.5 -40.4036 30.9983%
2328.12 -39.7297 32.681%
2640.62 -40.0338 32.2248%
2656.25 -40.1089 31.9635%

-----
75.602 #117
-----
375 -35.2992 31.0627%
546.875 -34.0833 30.937%
562.5 -29.4149 52.9661%
640.625 -31.0098 42.7212%
656.25 -26.931 64.5211%
671.875 -28.3575 55.0656%
937.5 -33.4438 44.3511%
953.125 -33.9948 41.8749%
968.75 -35.9596 33.5892%
1265.62 -35.3017 39.7547%
1281.25 -34.0535 46.5085%
1296.88 -32.4847 55.5534%
1312.5 -29.7914 70.4031%
1328.12 -32.3722 56.8917%
1343.75 -35.3865 43.1439%

-----
87.5341 #118
-----
375 -35.0993 31.7962%
562.5 -32.0798 39.6483%
750 -32.587 35.7527%
984.375 -34.8643 37.7135%
1000 -33.9834 41.7282%
1015.62 -34.2184 41.5667%
1328.12 -29.759 70.2502%
1343.75 -24.9281 103.023%
1359.38 -25.2357 100.296%
1375 -31.677 58.9139%
1390.62 -38.0122 31.0984%
3000 -35.787 51.0329%
3015.62 -34.9407 54.7241%
3046.88 -40.5902 32.4529%

-----
93.4682 #119
-----
375 -30.7572 49.3538%
390.625 -34.9559 30.7852%
656.25 -32.1099 37.8058%
765.625 -30.4162 44.8082%
906.25 -30.0005 54.8236%
921.875 -25.5423 84.7793%
937.5 -29.3246 62.5368%
1218.75 -33.0026 50.0446%
1234.38 -32.021 53.8035%
1328.12 -33.1814 52.554%
1343.75 -33.2358 52.1589%
1359.38 -37.0623 36.3868%
1375 -30.8144 63.6697%
1390.62 -34.5947 44.5329%
1531.25 -39.4504 31.0366%
1546.88 -39.8167 30.4744%
2640.62 -40.3026 31.1238%
3093.75 -40.0633 34.7829%
3109.38 -39.8563 35.3812%

-----
85.253 #120
-----
781.25 -30.762 43.0811%
921.875 -26.1101 79.8927%
937.5 -25.8586 83.4799%
1140.62 -38.4278 30.4233%
1234.38 -37.3761 31.8891%
1250 -32.9236 49.2282%
1328.12 -37.7108 34.2165%
1546.88 -34.1347 52.769%
2343.75 -40.5037 30.1464%
3093.75 -40.9226 31.7532%
3109.38 -36.5534 47.6808%
3125 -36.2054 49.2015%

-----
59.797 #121
-----
843.75 -30.2792 49.4677%
859.375 -29.6201 53.1754%
875 -29.4392 55.5771%
890.625 -30.5452 50.4196%
906.25 -34.8174 32.9387%
921.875 -33.112 41.6656%
937.5 -32.808 44.4517%
1156.25 -37.452 34.4296%
1250 -33.176 48.4493%
1265.62 -37.6811 30.9592%
1406.25 -37.6293 33.0373%
1421.88 -38.1096 31.9511%
1437.5 -36.211 39.3577%
1453.12 -37.9136 33.1646%
1562.5 -37.4654 39.6745%
3140.62 -41.0174 31.7212%

-----
82.1518 #122
-----
375 -31.8345 42.7055%
812.5 -27.1904 64.4862%
828.125 -30.1254 49.3075%
937.5 -36.0195 30.9759%
1125 -36.674 35.6282%
1359.38 -33.7044 49.7668%
1375 -33.4706 50.4401%
2250 -39.4281 35.8713%
2453.12 -39.948 34.3698%
2468.75 -39.9387 34.1492%
3265.62 -40.218 34.2074%
3281.25 -39.7118 35.9622%
3531.25 -41.1696 32.6329%
3546.88 -38.5658 41.661%

-----
77.2233 #123
-----
781.25 -32.2858 37.0359%
828.125 -30.9798 45.4743%
843.75 -29.0595 55.4128%
859.375 -30.3584 49.1264%
1140.62 -33.1099 51.2032%
1156.25 -37.1933 35.1193%
1421.88 -30.7368 63.333%
1437.5 -31.6976 59.0526%
3125 -41.526 31.3669%
3140.62 -37.9104 43.7866%
3421.88 -38.1691 41.2311%
3437.5 -39.7743 35.3692%

-----
71.8802 #124
-----
828.125 -29.0421 55.5226%
843.75 -29.9714 51.0023%
859.375 -34.4985 31.5131%
1109.38 -35.2344 40.374%
1359.38 -36.0097 40.7859%
1375 -30.4742 65.9443%
1390.62 -31.3387 60.35%
1953.12 -42.2717 30.2636%
3296.88 -41.6326 31.0352%
3312.5 -41.435 31.9771%

-----
75.3163 #125
-----
765.625 -32.3944 37.0791%
1125 -36.9496 34.9952%
1359.38 -36.9114 37.7868%
1375 -37.759 34.2852%
1390.62 -38.3368 31.4394%

-----
80.4671 #126
-----
1125 -38.4433 30.3466%
1343.75 -39.1656 30.1463%
1359.38 -36.721 39.0214%
1375 -36.0175 41.349%
1390.62 -38.2859 32.0716%

-----
73.321 #127
-----
421.875 -30.3881 41.0484%
562.5 -29.4096 46.5524%
984.375 -36.1631 30.0218%
1000 -35.7189 32.464%
1671.88 -39.5955 33.3285%
1687.5 -40.626 30.2576%

-----
68.2231 #128
-----
406.25 -32.807 30.9933%
421.875 -28.5136 49.8078%
562.5 -30.3421 42.4279%
984.375 -34.4687 37.0982%

-----
68.627 #129
-----
421.875 -30.1466 41.3102%
1328.12 -38.7998 31.8897%

-----
65.2115 #130
-----
656.25 -33.4453 31.2363%
671.875 -32.547 34.6804%
984.375 -35.627 33.7069%
1671.88 -38.9115 34.0135%

-----
61.5616 #131
-----

-----
68.1687 #132
-----
828.125 -34.3196 35.1161%

-----
65.4902 #133
-----
421.875 -30.5028 39.0753%
500 -33.0036 30.5726%
828.125 -34.0493 36.828%

-----
69.8024 #134
-----
500 -31.5954 36.4627%

-----
83.713 #135
-----
421.875 -32.1256 31.6062%
562.5 -32.3027 31.9898%
625 -33.1093 31.6907%
984.375 -35.1197 37.0743%

-----
74.4039 #136
-----
421.875 -30.235 39.5631%

-----
67.5447 #137
-----
531.25 -29.3393 46.5623%
546.875 -25.4171 67.4113%
562.5 -26.368 61.0825%
968.75 -36.6884 30.4024%
1671.88 -38.9255 33.8078%
1718.75 -38.7845 34.5655%

-----
61.3995 #138
-----
437.5 -32.3938 31.6491%
562.5 -30.04 40.8774%
578.125 -32.0595 33.6455%
1250 -38.3343 33.8189%
1656.25 -36.4304 43.6496%
1671.88 -34.1841 52.8831%
1703.12 -37.4484 39.4725%
1718.75 -38.0714 37.2567%
1734.38 -36.2394 43.9945%
2265.62 -41.102 30.3762%
2515.62 -39.1261 34.8729%
2531.25 -36.8345 42.9047%
2546.88 -37.1486 41.3817%
2562.5 -38.388 36.9114%
3359.38 -39.0105 41.4847%
3375 -40.2998 36.9565%

-----
60.502 #139
-----
546.875 -27.1827 56.171%
562.5 -26.9488 57.05%
1406.25 -38.9713 34.966%
1609.38 -33.12 57.9563%
1625 -30.4513 72.0262%
1640.62 -32.9715 59.2403%
1656.25 -38.8312 34.8209%
1671.88 -31.8133 64.2611%
1687.5 -33.3017 56.8256%

-----
61.0161 #140
-----
562.5 -27.0026 56.8125%
578.125 -29.6498 44.6251%
1406.25 -34.033 53.5347%
1421.88 -33.245 57.8059%
1437.5 -37.6394 39.5444%
1671.88 -39.2707 32.3273%
3046.88 -41.2805 32.1475%

-----
66.0814 #141
-----
828.125 -35.4576 33.0197%
843.75 -35.988 31.4344%
1109.38 -30.6549 65.3238%
1125 -31.1653 63.4557%
1390.62 -35.8137 45.9299%
1406.25 -36.2035 43.9189%
1671.88 -38.8564 33.8793%
2234.38 -41.046 30.3661%

-----
73.1167 #142
-----
531.25 -31.0708 38.6275%
546.875 -23.7287 79.5022%
562.5 -23.7655 78.3493%
578.125 -31.393 36.6161%
828.125 -33.2761 41.9675%
843.75 -33.4306 41.6838%
1078.12 -33.6214 51.0247%
1093.75 -32.4073 56.616%
1109.38 -36.4861 38.7312%
1125 -35.6082 42.8816%
1359.38 -32.4405 61.353%
1375 -34.2668 52.6709%

-----
61.6544 #143
-----
828.125 -33.3299 41.7218%
1375 -33.1663 57.1094%
1390.62 -28.066 85.3748%
1406.25 -32.7123 58.651%
3593.75 -37.1486 46.9716%

-----
49.7861 #144
-----
1109.38 -36.8867 36.5151%
1375 -39.4606 31.6147%
1625 -39.9975 30.7028%
1640.62 -37.1676 41.0012%
1656.25 -35.8884 46.0005%
1906.25 -40.7149 33.5559%
2234.38 -40.3647 32.3551%
3765.62 -42.5853 30.6844%

-----
44.7586 #145
-----
546.875 -29.4711 44.7378%
562.5 -26.4678 60.5599%
843.75 -36.166 30.3953%
1718.75 -39.6016 31.4799%
1734.38 -39.7907 31.1854%
3671.88 -42.1239 30.4121%
3703.12 -38.906 41.5432%
3718.75 -36.1802 52.5612%
3734.38 -37.1429 48.9999%
3828.12 -43.66 32.7714%

-----
58.7027 #146
-----
578.125 -31.8517 35.2151%
703.125 -31.8076 36.8052%
1109.38 -35.7148 41.1587%
1125 -38.1491 32.8847%
1375 -38.832 32.9864%
1390.62 -34.0364 51.524%
1406.25 -38.6327 33.1411%
1656.25 -32.7705 58.9972%
1671.88 -29.2586 77.7216%
1687.5 -34.779 49.248%
2484.38 -39.1815 33.4107%
2500 -36.7814 42.1593%
2515.62 -38.9995 33.8333%
2531.25 -39.5984 31.5268%
2781.25 -40.6826 31.2338%
3046.88 -38.493 41.317%
3062.5 -39.2101 38.6078%
3359.38 -41.7681 32.5853%
3625 -41.1799 32.5312%
3687.5 -42.0945 30.7936%

-----
71.7968 #147
-----
546.875 -33.1573 30.2317%
562.5 -28.35 51.9976%
828.125 -35.1695 33.89%
843.75 -33.6239 40.0811%
1656.25 -40.0287 30.2638%
2234.38 -39.277 36.5701%

-----
70.4455 #148
-----
546.875 -29.1148 50.0565%
562.5 -25.8749 68.5608%
703.125 -31.1239 41.3692%
1406.25 -38.1958 33.1856%
2531.25 -39.847 31.581%

-----
70.9845 #149
-----
546.875 -31.5988 38.5107%
562.5 -28.4578 53.2911%
703.125 -33.3874 31.3494%

-----
77.2415 #150
-----
546.875 -27.8294 57.8118%
562.5 -23.0262 90.1318%
578.125 -27.0132 62.8356%
828.125 -35.569 32.6389%
1375 -36.1578 41.5596%
1390.62 -33.5963 51.8384%
1406.25 -36.6633 38.5662%
1625 -38.2867 36.6816%
1640.62 -38.8174 35.1601%
1656.25 -33.8407 55.395%
1671.88 -32.9203 59.6433%
1687.5 -37.4409 40.251%
1937.5 -40.5606 35.6419%
1953.12 -39.0323 40.82%
2453.12 -40.4109 31.6423%
2468.75 -39.5736 33.8756%
2484.38 -39.4857 33.6856%
2500 -38.349 37.6758%
2515.62 -38.7512 36.1174%
2796.88 -40.3851 33.3825%
2812.5 -37.4781 44.2178%
2828.12 -40.7401 32.7477%

-----
78.8852 #151
-----
546.875 -28.5108 53.8851%
562.5 -24.4784 78.8501%
578.125 -31.938 37.7371%
1375 -37.9205 34.6648%
1390.62 -27.9313 82.1688%
1406.25 -30.6446 65.3024%
1656.25 -39.5741 32.5546%
2515.62 -34.4357 52.9257%
2531.25 -35.8007 47.0133%
2796.88 -39.4755 36.2046%
2812.5 -38.785 39.1345%
3625 -37.4053 46.9815%
3640.62 -34.4287 59.8565%

-----
84.5879 #152
-----
546.875 -24.2958 81.0661%
562.5 -23.6201 85.8157%
1109.38 -38.699 31.0748%
1125 -39.0618 30.6671%
1375 -39.1881 30.5091%
1390.62 -35.6754 42.6601%
2500 -37.2926 41.2997%
2515.62 -36.5097 44.2183%
3609.38 -40.0195 36.9273%

-----
71.3727 #153
-----
421.875 -33.6246 33.6255%
546.875 -29.3543 50.1122%
562.5 -27.9385 57.207%
609.375 -34.0572 30.2457%
625 -31.4145 40.3411%
640.625 -32.5633 35.5941%
1125 -38.4924 32.4935%
1203.12 -38.2259 35.3572%
1218.75 -36.2826 41.8845%
1234.38 -36.3721 39.9695%
1250 -36.3423 38.5527%
1265.62 -37.8262 32.7933%
1375 -38.1387 34.4222%
1390.62 -37.1219 37.5151%

-----
73.04 #154
-----
312.5 -30.6078 44.9741%
468.75 -32.5478 37.4906%
562.5 -33.1987 32.241%
625 -29.3572 50.1843%
640.625 -30.0796 46.9781%

-----
66.7208 #155
-----
312.5 -26.5058 67.143%
328.125 -33.4727 32.8612%
468.75 -31.0356 44.5198%
484.375 -33.2986 34.1356%
609.375 -30.678 44.8883%
625 -30.1742 46.427%
781.25 -34.9569 31.6541%
796.875 -34.6366 34.3754%
906.25 -33.7099 42.9342%
921.875 -34.8052 38.7077%
2718.75 -39.6812 34.0011%
2734.38 -39.2549 35.7106%

-----
75.7187 #156
-----
312.5 -28.9023 53.552%
328.125 -34.1857 30.4539%
609.375 -32.0474 39.721%
625 -30.7653 44.7994%
921.875 -33.6562 44.2788%
937.5 -31.4946 55.267%

-----
83.963 #157
-----
781.25 -32.0455 44.2731%
796.875 -32.4476 44.0096%
937.5 -37.1261 31.374%
953.125 -33.8534 45.4031%
968.75 -38.2255 30.0155%
1281.25 -37.7623 34.1387%
1296.88 -31.7743 59.761%
1312.5 -31.8016 59.3388%
1328.12 -38.1475 32.4575%

-----
74.9645 #158
-----
625 -31.5049 42.5839%
640.625 -32.3709 39.1218%
781.25 -34.4937 34.0029%
796.875 -34.9451 33.7306%
1406.25 -37.7772 32.0721%
1531.25 -36.703 37.2137%
1546.88 -30.5165 65.4081%
1562.5 -26.0667 95.577%
1578.12 -29.7645 73.2164%
1593.75 -34.7528 49.1813%

-----
70.4981 #159
-----
593.75 -28.005 62.3348%
609.375 -23.2402 94.8311%
625 -25.4964 76.7395%
781.25 -31.5092 46.641%
796.875 -28.6627 62.9799%
1531.25 -35.5291 41.6294%
1546.88 -34.8506 44.8737%
1562.5 -38.2894 33.199%

-----
73.8894 #160
-----
578.125 -33.513 34.4444%
593.75 -29.989 51.1172%
781.25 -28.0256 63.2683%
796.875 -29.6576 55.9066%
1484.38 -35.7952 38.6407%
1765.62 -39.5352 36.9299%
1781.25 -38.9222 39.5343%
2656.25 -35.4361 48.237%
2671.88 -36.7882 42.6889%
3828.12 -40.6551 42.5873%
3843.75 -38.659 43.0602%

-----
66.0546 #161
-----
578.125 -34.5819 30.3553%
593.75 -34.4999 31.1391%
609.375 -29.5507 52.5152%
625 -21.8438 105.406%
640.625 -26.0275 72.3363%
796.875 -34.2735 33.9898%
1562.5 -37.563 35.6582%

-----
57.2987 #162
-----
609.375 -31.5796 42.5587%
625 -26.5983 68.5069%
640.625 -30.3647 47.632%
781.25 -31.2688 44.8104%
796.875 -34.9596 30.7974%
937.5 -31.5117 50.5376%
953.125 -29.4873 62.8717%
1593.75 -39.5061 30.7397%
3156.25 -40.9217 36.1714%
3468.75 -40.7245 37.5348%
3500 -42.8805 30.0489%
3812.5 -42.7515 34.1873%

-----
65.9106 #163
-----
593.75 -29.2747 54.839%
625 -26.8112 67.3205%
640.625 -25.2926 77.4237%
656.25 -33.8504 33.1104%
937.5 -32.0776 47.5362%
953.125 -30.9106 55.213%
1515.62 -38.4537 31.5866%
1796.88 -38.795 40.3847%
1812.5 -37.0741 46.6872%
1828.12 -40.5605 33.8198%
2703.12 -38.1404 39.2358%
2718.75 -34.7593 53.0842%
2734.38 -38.2916 39.3188%
2750 -39.6122 35.2761%
3625 -38.8167 43.0945%
3640.62 -40.3321 37.957%

-----
74.0671 #164
-----
625 -25.9402 74.4169%
640.625 -26.3196 71.8766%
937.5 -34.8939 35.366%
953.125 -31.7955 50.7613%
1578.12 -31.8997 62.223%
1593.75 -31.765 63.8065%
1609.38 -38.4566 35.2986%
2203.12 -39.2577 38.8422%
2531.25 -38.551 39.5578%

-----
65.2256 #165
-----
609.375 -32.1813 42.0257%
625 -24.7976 83.3466%
640.625 -29.167 55.8166%
781.25 -31.8497 43.4696%
796.875 -35.4535 30.0622%
937.5 -34.8904 35.6186%
953.125 -35.6251 34.7882%
1562.5 -33.9471 51.3325%
1578.12 -29.5877 74.8968%
1593.75 -31.0654 67.3674%
1609.38 -38.9888 33.2443%
3156.25 -41.9345 33.0495%
3468.75 -42.1748 32.6189%

-----
77.1574 #166
-----
625 -34.2975 32.593%
640.625 -34.4623 31.9627%
937.5 -35.1529 34.9864%
1484.38 -38.0136 32.8309%
1515.62 -38.8395 31.5114%
1562.5 -39.2229 30.5934%
1578.12 -38.5598 33.8048%

-----
64.8883 #167
-----
390.625 -34.2629 35.7128%
781.25 -32.2384 42.0663%
796.875 -32.8823 40.7656%
843.75 -34.1863 37.0054%
1125 -38.6663 30.5602%
1375 -37.404 34.597%
1390.62 -33.7489 48.8634%
1406.25 -30.7838 62.374%
1421.88 -30.6832 62.2891%
1437.5 -33.1531 50.2367%
1468.75 -37.1221 34.7897%

-----
91.537 #168
-----
593.75 -32.9759 38.5323%
625 -32.4826 39.0435%
796.875 -33.0864 39.5236%
812.5 -28.5028 64.0954%
828.125 -27.222 72.1755%
843.75 -34.5601 35.526%
1093.75 -35.629 39.4524%
1171.88 -38.8307 30.7794%
1187.5 -35.7493 42.3145%
1359.38 -32.9492 53.0832%
1375 -30.2774 66.2135%
1390.62 -35.0787 43.1475%
2187.5 -40.9347 31.5328%
3562.5 -41.1021 32.5041%

-----
75.5657 #169
-----
390.625 -34.5478 33.6446%
593.75 -33.9761 34.1395%
625 -34.1687 31.9668%
781.25 -34.6796 31.5445%
796.875 -30.4014 51.8354%
812.5 -29.4451 58.8054%
828.125 -34.1107 37.3497%
1031.25 -37.7643 31.2793%
1046.88 -35.0201 41.8216%
1296.88 -38.4191 31.5345%
1312.5 -35.0031 44.0162%
1343.75 -36.0854 39.7119%
1359.38 -37.5564 34.6937%
1375 -36.0773 40.0625%
2390.62 -40.7582 31.1312%

-----
67.4081 #170
-----
578.125 -32.7665 39.0834%
593.75 -30.6412 49.2114%
609.375 -28.8253 57.6861%
625 -26.8872 68.3363%
640.625 -30.804 47.1954%
781.25 -28.3368 61.5692%
796.875 -30.5954 51.1919%
875 -30.9078 53.5871%
890.625 -31.0998 53.5917%
906.25 -32.2286 48.2701%
921.875 -35.3282 35.076%
1203.12 -38.7449 31.8046%
1218.75 -37.0806 37.4853%
1468.75 -38.2351 32.1405%
1484.38 -37.391 36.113%

-----
68.3336 #171
-----
453.125 -34.7197 31.9379%
609.375 -34.3676 31.949%
625 -26.8977 68.0995%
640.625 -30.6387 47.9755%
921.875 -31.2809 53.0461%
937.5 -29.9656 60.0972%
953.125 -36.2323 34.2348%
1218.75 -36.8817 38.5033%
1234.38 -33.6922 50.4664%
1250 -33.4477 50.9604%
1546.88 -38.5318 33.03%
1875 -40.8616 34.1344%
1890.62 -39.5057 39.2572%
2203.12 -40.6467 33.7534%
2484.38 -40.9613 30.7561%
2843.75 -40.9579 31.9968%
3093.75 -41.1907 35.1481%

-----
69.9777 #172
-----
312.5 -32.4178 33.9759%
625 -33.4451 35.3445%
640.625 -34.3189 32.3333%
906.25 -30.8311 55.7519%
921.875 -29.7494 61.2687%
1218.75 -29.3211 74.9655%
1234.38 -30.2331 68.5036%
1875 -40.3062 36.4542%
1890.62 -40.2257 37.2427%
3062.5 -37.6644 46.961%
3078.12 -42.5001 30.7161%

-----
68.1145 #173
-----
625 -33.6764 34.1804%
781.25 -32.7507 40.6273%
796.875 -34.4404 35.057%
1171.88 -39.3062 30.0168%
1187.5 -34.821 46.8503%
1203.12 -34.1496 50.0773%
1218.75 -35.8002 42.9735%
1234.38 -38.6184 31.5571%
3031.25 -41.4126 33.209%

-----
90.5974 #174
-----
609.375 -32.24 40.7318%
625 -27.5167 64.507%
640.625 -32.9059 38.1602%
781.25 -30.7871 49.9146%
796.875 -33.1103 40.7089%

-----
66.8233 #175
-----
625 -30.8743 46.8898%
3031.25 -39.7351 38.4298%
3046.88 -39.3989 40.0943%

-----
78.8779 #176
-----
609.375 -34.5817 31.3715%
625 -30.2504 49.8245%
656.25 -30.0246 52.2338%
671.875 -28.901 57.4488%
1562.5 -39.1206 33.8563%
1578.12 -38.23 37.7756%
1656.25 -39.0172 36.4906%
1671.88 -37.7765 41.2404%
1843.75 -37.1887 49.3225%
1859.38 -33.2807 67.1425%
1875 -34.497 61.4793%
1890.62 -40.4399 37.983%
2328.12 -40.4764 33.8415%
2468.75 -39.5449 36.7397%
2484.38 -36.6844 47.5994%
2500 -35.696 51.8147%
2515.62 -36.5382 47.8341%
3000 -41.5716 31.0309%
3703.12 -36.9955 50.9377%
3718.75 -33.8536 65.4262%
3734.38 -33.1993 69.4856%
3750 -34.2902 65.0664%
3765.62 -37.5753 51.5142%
3781.25 -40.9014 40.0984%
3796.88 -42.8077 34.9002%

-----
74.8366 #177
-----
312.5 -31.2921 38.0961%
328.125 -31.8689 36.3659%
656.25 -33.5172 35.6268%
671.875 -29.3972 53.9096%
1000 -37.7964 31.3575%
1328.12 -37.4584 36.4857%
1343.75 -39.1584 30.6141%
1671.88 -38.976 36.6882%
1812.5 -35.1621 56.8197%
1828.12 -31.4827 75.2177%
1843.75 -38.533 43.5292%
2437.5 -35.8931 50.4982%
2453.12 -36.7258 47.1151%
3359.38 -42.7023 31.2711%
3671.88 -38.975 41.4285%

-----
61.0645 #178
-----
625 -32.8307 36.8433%
656.25 -30.2792 49.5679%
671.875 -28.6248 57.6288%
1328.12 -37.6996 36.0428%
1531.25 -37.8868 37.5247%
1562.5 -38.8181 34.9549%
1671.88 -40.3115 31.9167%
2000 -41.0774 33.6267%
2421.88 -41.1264 31.4853%
2437.5 -35.5589 51.8793%
2453.12 -40.7703 32.4035%
3046.88 -40.4208 35.3835%
3062.5 -38.4342 42.7767%
3078.12 -41.9014 31.538%
3328.12 -40.1392 40.0209%
3343.75 -42.1176 33.3234%

-----
72.9221 #179
-----
328.125 -29.2155 49.9802%
343.75 -32.1518 37.2208%
656.25 -32.4347 39.566%
671.875 -32.7284 37.833%
1296.88 -30.3358 69.6349%
1312.5 -29.064 77.0304%
1328.12 -36.4969 40.8244%
1671.88 -37.8989 40.0842%
3281.25 -42.8572 30.2785%
3328.12 -42.0177 33.483%

-----
72.4365 #180
-----
640.625 -32.8689 37.0762%
656.25 -26.6616 69.8402%
671.875 -29.0697 55.1778%
968.75 -34.4795 42.4633%
984.375 -34.846 41.8459%
1296.88 -37.4316 37.6794%
1328.12 -38.3464 34.1256%

-----
96.438 #181
-----
312.5 -34.0235 30.8274%
328.125 -34.1704 30.7091%
640.625 -34.9776 30.019%
656.25 -27.6748 64.9389%
671.875 -28.9447 56.7735%
953.125 -34.7269 39.7556%
968.75 -32.187 52.726%
984.375 -34.7127 42.723%

-----
72.0365 #182
-----
625 -33.8055 34.0965%
656.25 -33.2203 37.2096%
671.875 -30.1175 50.5219%

-----
69.1456 #183
-----
328.125 -32.646 37.5579%
625 -33.9332 33.9988%
656.25 -29.2132 56.1582%
671.875 -28.2721 60.3072%
687.5 -29.2601 54.549%
703.125 -31.9312 42.0412%
1984.38 -38.8172 41.8604%
2000 -34.6408 58.817%
2015.62 -34.0518 61.5554%
2031.25 -32.8613 66.8951%
2046.88 -37.4232 45.5739%
2390.62 -41.567 30.1525%
2656.25 -40.8261 32.7106%
2671.88 -39.6452 36.8819%

-----
90.6469 #184
-----
328.125 -31.735 42.1733%
343.75 -32.4639 39.6575%
656.25 -31.0269 47.2695%
687.5 -31.7364 42.7546%
984.375 -31.3608 58.1917%
1000 -35.243 42.2129%
1312.5 -32.6656 59.6134%
1328.12 -31.2651 66.4688%
1343.75 -37.3423 38.5963%
1625 -40.3593 30.0409%
1640.62 -31.4965 66.5469%
1656.25 -30.603 71.8933%
1671.88 -35.4523 49.1667%
1687.5 -38.5242 37.5334%
2015.62 -42.1601 30.5682%
2953.12 -40.2053 34.8597%
2968.75 -40.0392 35.242%
3328.12 -42.7803 30.8694%

-----
121.463 #185
-----
328.125 -31.845 42.2415%
343.75 -34.1148 33.3141%
625 -34.7502 31.0145%
656.25 -29.5639 54.3115%
671.875 -28.3741 59.7599%
921.875 -33.7995 43.3661%
937.5 -25.9958 86.8401%
953.125 -29.3123 66.9402%
1000 -35.5824 41.3483%
1250 -35.447 43.635%
1265.62 -34.0106 50.4767%
1312.5 -39.6172 30.977%
1328.12 -36.502 41.977%
1546.88 -39.1291 32.488%
1562.5 -33.9505 53.7524%
1578.12 -33.809 55.1144%
1593.75 -37.4143 40.7001%
3328.12 -38.3602 45.4105%
3343.75 -37.6581 47.9825%

-----
92.4256 #186
-----
343.75 -34.4647 32.0646%
625 -32.8225 38.7533%
640.625 -32.8681 38.7206%
656.25 -28.2427 61.2578%
671.875 -28.4962 58.4763%
921.875 -32.2069 50.3263%
937.5 -24.2292 100.206%
953.125 -27.3734 78.3599%
1250 -34.5066 46.8092%
1265.62 -33.9888 49.7892%
1328.12 -39.3864 30.7137%
1546.88 -34.1098 51.6162%
1578.12 -33.1058 58.2545%
1593.75 -40.0245 31.4758%
2203.12 -41.1464 32.0838%
2656.25 -41.6236 30.5483%

-----
63.84 #187
-----
437.5 -34.8009 35.022%
656.25 -33.9824 34.5079%
843.75 -35.9426 31.2962%
859.375 -32.529 46.0141%
875 -33.6706 42.1475%
890.625 -32.758 47.0625%
906.25 -35.6401 35.6797%
921.875 -31.3832 54.3006%
937.5 -29.7887 62.7466%
1437.5 -37.6243 35.3858%
1453.12 -36.3166 40.6718%
1468.75 -36.6227 40.1963%
1484.38 -36.7271 40.7327%
1500 -38.3134 35.421%
1562.5 -36.4587 44.2559%
1578.12 -40.2884 31.2572%

-----
71.458 #188
-----
328.125 -32.5013 40.0956%
656.25 -33.9466 35.3527%
671.875 -34.4231 32.1557%
765.625 -30.2407 51.2931%
781.25 -33.296 37.6518%
875 -32.0448 49.7735%
890.625 -28.6664 68.4597%
906.25 -36.366 33.2074%
1015.62 -35.6494 42.18%
1031.25 -35.1534 44.8504%
1265.62 -37.6895 35.3977%
1281.25 -34.4754 49.3307%
1296.88 -36.8739 40.3229%
1515.62 -38.0225 36.7674%
1531.25 -35.7998 45.1668%
1546.88 -39.9684 30.8961%

-----
66.7633 #189
-----
765.625 -34.3571 33.3975%
828.125 -31.6438 48.1471%
843.75 -27.4509 72.6383%
859.375 -31.494 51.2185%
875 -30.7761 55.6388%
890.625 -31.0908 54.8959%
1296.88 -36.668 41.7223%
1312.5 -36.922 41.0042%
1390.62 -34.4709 49.5644%
1406.25 -31.8138 61.8916%
1421.88 -38.498 33.4087%
2515.62 -39.675 37.6614%
2531.25 -39.3404 38.3155%
3078.12 -39.8823 36.6425%
3093.75 -38.1464 43.6231%

-----
62.0033 #190
-----
656.25 -32.4843 42.3293%
671.875 -33.4769 36.6464%
765.625 -32.8367 39.3665%
781.25 -32.2103 42.4175%
796.875 -34.0191 35.108%
812.5 -31.1974 48.0175%
828.125 -27.2778 71.7811%
1093.75 -39.1535 32.1136%
1109.38 -36.2346 43.3354%
1359.38 -33.4918 54.2424%
1375 -30.3978 70.2269%
1390.62 -33.2768 55.4357%
1406.25 -39.1957 31.7817%
2484.38 -39.1179 39.7269%

-----
80.5969 #191
-----
546.875 -32.6489 38.849%
656.25 -32.1059 43.5577%
671.875 -34.6676 31.5263%
765.625 -31.6869 43.9714%
781.25 -31.3171 46.0729%
812.5 -27.4233 68.1903%
828.125 -29.8524 56.8114%
1062.5 -38.111 35.0903%
1078.12 -32.2734 60.1963%
1093.75 -33.345 55.3889%
1343.75 -35.531 45.6157%
1359.38 -37.7505 36.7892%

-----
63.3831 #192
-----
437.5 -35.6766 31.6967%
546.875 -33.6956 34.3986%
656.25 -31.8628 44.9721%
671.875 -32.5384 40.5137%
1093.75 -38.8387 33.2918%
1109.38 -30.5114 70.3579%
1125 -33.0789 57.5923%
1390.62 -37.9667 35.9545%
1781.25 -41.2769 31.9816%
2203.12 -40.1104 34.9762%
2218.75 -38.191 41.9109%
2234.38 -38.9318 39.4807%
2250 -37.8596 43.629%

-----
70.0462 #193
-----
437.5 -26.7127 74.6641%
453.125 -29.0238 61.0413%
546.875 -28.3331 59.1891%
562.5 -31.6496 43.042%
671.875 -35.0291 30.1554%
890.625 -35.3917 36.0409%
1093.75 -36.032 43.2132%
1109.38 -35.9788 43.8287%
1125 -39.114 32.4751%
1312.5 -38.5501 32.6897%
1328.12 -32.2328 58.4586%
1343.75 -35.1824 44.6467%
1359.38 -36.4253 39.5271%
2203.12 -35.3668 52.0135%
2218.75 -34.1635 57.5891%

-----
62.3926 #194
-----
437.5 -30.3247 53.4445%
453.125 -31.3698 48.8637%
656.25 -32.1256 43.3383%
671.875 -30.969 47.1001%
890.625 -34.779 38.1503%
1765.62 -38.9645 36.9506%
1781.25 -38.2771 39.6398%
2203.12 -37.7187 41.9579%
2218.75 -35.5873 50.7289%

-----
73.4501 #195
-----
437.5 -32.746 42.0875%
453.125 -31.3555 49.0195%
671.875 -33.6608 34.9566%

-----
65.2142 #196
-----
437.5 -32.3034 43.5859%
453.125 -33.556 38.8547%
546.875 -33.7976 33.1733%
562.5 -33.0777 36.4817%
828.125 -33.2318 41.1083%
1671.88 -37.4475 39.2624%

-----
72.2251 #197
-----
437.5 -29.7773 55.1905%
453.125 -31.0674 49.6163%
546.875 -33.0555 36.1548%
562.5 -32.0055 41.1121%
656.25 -33.8152 36.4214%
671.875 -33.0181 38.0313%
828.125 -35.7201 32.1791%
1109.38 -38.6751 33.2614%
1390.62 -37.7517 33.7115%

-----
67.092 #198
-----
437.5 -26.9315 70.5429%
453.125 -28.0844 64.7237%
1671.88 -37.7281 38.1521%

-----
67.0389 #199
-----
437.5 -26.2667 74.5484%
453.125 -28.449 62.3569%
875 -34.6645 41.7504%
890.625 -32.4027 51.6439%
1328.12 -37.5984 34.7897%
1671.88 -36.7197 42.4035%
1781.25 -40.3164 30.8613%

-----
71.5414 #200
-----
437.5 -32.8264 39.7421%
656.25 -31.6742 46.4252%
671.875 -31.2507 46.5606%
890.625 -35.7955 37.6274%
2671.88 -41.3612 31.3247%

-----
64.8374 #201
-----
546.875 -33.832 31.5004%
562.5 -32.781 36.3149%
656.25 -29.7909 56.007%
671.875 -29.5122 55.5443%
890.625 -36.993 33.3398%
1109.38 -37.2244 37.6024%
2250 -41.4608 30.2281%

-----
67.5309 #202
-----
656.25 -28.4444 63.312%
671.875 -28.8523 59.3147%
1671.88 -39.6382 31.8294%
2000 -40.6 34.5479%
2218.75 -40.6373 32.0581%

-----
70.3101 #203
-----
437.5 -33.887 34.2412%
453.125 -32.4703 41.3935%
656.25 -32.8208 42.2627%
671.875 -35.0668 31.6621%
812.5 -33.9038 40.1928%
828.125 -31.8309 52.2696%
843.75 -33.5996 46.6139%
1046.88 -37.9225 34.8927%
1062.5 -37.6805 36.8155%
1078.12 -39.8123 30.0743%
1281.25 -38.5037 30.2922%
1296.88 -37.6729 34.2599%
1312.5 -37.142 36.956%
1359.38 -33.1454 53.7948%
1375 -33.1094 54.5437%
1406.25 -37.9178 35.834%
1421.88 -38.7663 32.8529%
1437.5 -39.3375 31.4215%
1687.5 -37.9976 38.3674%
1703.12 -38.3792 37.562%
1765.62 -40.0418 32.9233%
1781.25 -39.9521 32.7535%
1812.5 -40.1523 32.15%
2531.25 -41.1807 31.074%
3328.12 -40.8317 33.0981%
3343.75 -37.4745 45.3201%
3359.38 -39.514 37.9537%

-----
66.4409 #204
-----
562.5 -31.5298 40.6623%
578.125 -33.5074 33.0638%
828.125 -36.9144 31.8681%
843.75 -36.7488 34.6387%
1265.62 -38.2015 31.2878%
1437.5 -37.2832 39.529%
1703.12 -38.6815 37.2898%
1718.75 -29.6876 79.7226%
1734.38 -29.6179 80.1452%
1750 -32.3656 65.3048%
1765.62 -37.8894 41.4543%
1984.38 -41.3015 33.568%
2000 -39.4374 39.8083%
2109.38 -41.1307 30.2794%
2296.88 -37.8574 44.0673%
2312.5 -37.0966 46.9384%
2328.12 -38.9071 39.4802%
2515.62 -40.2336 34.4024%
2546.88 -38.7978 38.8887%
2562.5 -37.7479 42.3059%
2906.25 -40.9538 33.0958%
2921.88 -38.9697 39.5204%

-----
62.7894 #205
-----
421.875 -32.5032 38.3934%
562.5 -32.3482 36.9039%
656.25 -32.4304 44.5835%
671.875 -34.1496 35.4918%
828.125 -31.9424 52.9402%
843.75 -34.0471 45.8608%
1046.88 -38.8589 32.9229%
1390.62 -39.1728 32.7352%
1656.25 -36.8703 43.1895%
1671.88 -38.5794 37.1267%
1750 -39.5886 36.017%
1937.5 -33.6397 64.2488%
1953.12 -32.9833 67.8151%
2484.38 -38.7575 40.2533%
2500 -33.4082 62.6529%
2515.62 -33.8628 60.3124%
2531.25 -40.9047 32.6793%
2921.88 -41.821 30.3421%

-----
63.6154 #206
-----
546.875 -31.6345 39.2058%
562.5 -30.735 44.0219%
656.25 -33.9419 38.2964%
812.5 -33.9246 40.9259%
828.125 -25.4364 91.6827%
843.75 -26.7685 85.1522%
1671.88 -38.9656 35.5448%
1687.5 -35.1125 51.0329%
1703.12 -36.7047 45.1599%
2500 -41.2389 31.4756%
2781.25 -39.9473 35.8603%
2796.88 -41.3452 31.4694%
2906.25 -38.7265 40.8029%
2921.88 -37.6746 44.3932%

-----
71.1752 #207
-----
421.875 -34.2723 31.0741%
437.5 -33.6515 35.038%
656.25 -35.2915 33.4006%
828.125 -35.0814 39.2947%
843.75 -34.7986 42.7933%
1656.25 -37.059 42.0731%
1687.5 -40.5771 30.5177%
2484.38 -40.2041 34.8228%
2500 -38.796 39.3986%
3546.88 -42.7938 30.5704%

-----
58.0802 #208
-----
437.5 -33.1348 36.6673%
515.625 -31.8335 38.4271%
531.25 -31.9136 37.3599%
546.875 -33.7299 30.5368%
656.25 -35.2029 33.8148%
671.875 -34.9613 33.0778%
828.125 -31.9589 53.3426%
843.75 -35.1945 41.5792%
1296.88 -38.4525 32.8959%

-----
66.2784 #209
-----
437.5 -32.2399 40.198%
453.125 -33.5527 36.0623%
531.25 -33.3041 31.5183%
546.875 -30.212 45.6978%
562.5 -29.1409 51.9985%
1125 -39.0116 33.3577%
1406.25 -35.6449 45.6718%
1421.88 -30.1052 73.0024%
1437.5 -34.3267 52.6094%
1656.25 -36.3797 43.5525%
1671.88 -36.0282 44.9285%
2484.38 -40.3884 32.911%
3687.5 -42.1278 32.3031%
3703.12 -40.8937 37.1577%

-----
63.924 #210
-----
437.5 -33.047 35.981%
453.125 -32.6914 38.8047%
562.5 -33.7316 30.731%
671.875 -35.295 30.3011%
828.125 -36.0919 34.9646%
1093.75 -38.7978 35.1102%
1109.38 -31.2632 66.5247%
1125 -34.3407 51.128%
1375 -36.269 42.4498%
1390.62 -30.679 68.5801%
1406.25 -33.4249 55.0197%
1656.25 -39.1 33.474%
1671.88 -38.3771 36.0379%
2500 -40.6835 30.9542%

-----
80.9772 #211
-----
421.875 -31.5877 40.6478%
437.5 -30.1388 48.8699%
546.875 -31.8305 38.2495%
562.5 -29.261 51.304%
656.25 -28.1354 65.6145%
671.875 -27.4333 67.832%
875 -32.2366 55.0681%
890.625 -29.224 71.2858%
906.25 -36.1979 38.5423%
1109.38 -33.3363 56.1057%
1125 -35.6635 45.4147%
1375 -37.6557 36.8972%
1390.62 -29.4773 75.1546%
1406.25 -33.8124 52.8918%
3593.75 -41.4321 31.6768%

-----
56.9611 #212
-----
437.5 -27.6892 61.2421%
453.125 -28.3857 58.835%
656.25 -29.8525 56.2451%
671.875 -30.948 48.8537%
875 -30.3182 64.3163%
890.625 -26.4759 88.4252%
906.25 -34.494 45.041%
1375 -36.932 39.3106%

-----
61.7241 #213
-----
437.5 -26.6907 66.8497%
453.125 -29.6477 51.6829%
656.25 -30.7476 51.6808%
671.875 -31.8919 44.3317%
875 -37.1022 33.6568%
890.625 -32.0783 54.9685%
1109.38 -37.2994 39.6802%
1125 -37.275 39.4665%

-----
82.8163 #214
-----
437.5 -28.0092 59.5913%
453.125 -31.2788 44.1866%
546.875 -33.0115 34.7197%
562.5 -34.0561 31.2491%
656.25 -28.9534 61.3231%
671.875 -28.9906 58.9116%
890.625 -37.579 32.4464%

-----
75.1085 #215
-----
437.5 -26.9383 66.8701%
453.125 -28.5159 58.949%
656.25 -31.0701 50.7635%
671.875 -31.7393 45.5181%
890.625 -35.7306 39.2951%

-----
60.0574 #216
-----
437.5 -27.1993 65.3303%
453.125 -29.3104 54.5807%
656.25 -34.4634 35.9457%
671.875 -33.897 36.4201%
875 -36.6635 35.1957%
890.625 -35.362 40.749%
1390.62 -38.8555 35.0997%
1406.25 -39.3587 33.5308%
1671.88 -40.8432 30.2382%

-----
78.3078 #217
-----
437.5 -31.9886 40.4534%
453.125 -34.7125 30.4067%
578.125 -32.527 39.1305%
671.875 -35.1541 31.5163%
812.5 -35.8628 31.9735%
828.125 -28.8123 67.0565%
843.75 -33.8142 44.2624%
1250 -34.2703 51.6266%
1265.62 -38.9718 33.2284%
1656.25 -40.5865 30.9428%
1671.88 -40.4807 32.011%
1718.75 -38.3332 40.8706%
1734.38 -37.1448 45.5655%
1750 -40.5441 33.6649%
1984.38 -41.5008 30.1608%
2000 -37.7856 42.3391%
2015.62 -37.0029 44.3995%
2562.5 -36.3363 46.1766%
2578.12 -32.9208 61.303%
2593.75 -37.0097 43.7289%
2906.25 -42.0892 30.8472%
3328.12 -40.5766 35.8508%
3687.5 -41.7631 31.3962%
3703.12 -37.9079 45.4674%
3718.75 -35.5778 55.3978%
3734.38 -35.655 55.3436%
3750 -39.3663 40.8568%

-----
67.5841 #218
-----
437.5 -32.5596 38.0455%
828.125 -36.3714 31.2568%
1656.25 -36.3544 45.795%
1671.88 -35.8129 48.9322%
1687.5 -41.1166 30.274%
1734.38 -40.7153 32.5615%
1984.38 -33.9042 59.0327%
2000 -32.7674 63.9072%
2015.62 -31.523 69.3282%
2031.25 -40.6476 30.773%
2046.88 -40.6257 30.2532%
2281.25 -38.5897 35.2736%
2296.88 -36.5844 43.1465%
2312.5 -40.3036 30.1175%
2562.5 -40.5321 30.0796%
2578.12 -37.6532 39.9793%
2921.88 -41.1767 33.4437%
3687.5 -39.4519 38.7751%
3703.12 -38.0451 44.445%
3718.75 -38.7818 41.9624%
3734.38 -39.8367 38.4257%

-----
62.0909 #219
-----
1656.25 -36.8378 44.4651%
1906.25 -41.2643 32.6353%
1921.88 -40.1613 35.9417%
1937.5 -40.1112 35.9339%
1953.12 -41.6606 30.6754%
2062.5 -39.7563 32.3%
2187.5 -38.0921 34.9056%
2203.12 -36.5694 40.8465%
2218.75 -35.1095 47.3743%
2234.38 -36.285 43.046%
2250 -38.8878 33.839%
2265.62 -38.61 35.1528%
2515.62 -39.7313 33.6378%
2531.25 -38.0621 39.1501%
3734.38 -42.2803 30.6754%
3750 -42.0081 31.8191%

-----
60.3588 #220
-----
734.375 -33.1416 38.4552%
750 -29.9843 53.669%
1875 -42.2241 30.2341%
1890.62 -41.7583 31.1965%
2140.62 -38.447 32.9528%
2156.25 -34.8721 46.7607%
2171.88 -33.5194 53.1001%
2187.5 -34.2215 50.0942%
2203.12 -34.151 50.7261%
2218.75 -32.5762 58.768%
2234.38 -34.4588 50.5188%
2250 -37.6471 38.0549%
2578.12 -40.5929 30.1376%
3484.38 -41.5156 32.452%
3578.12 -42.1666 30.4564%
3593.75 -41.2769 33.1539%
3734.38 -40.8397 36.2795%
3750 -40.4478 37.9328%
3765.62 -40.6824 37.6621%
3781.25 -40.0017 40.9675%

-----
52.3303 #221
-----
2093.75 -37.7663 36.3682%
2109.38 -29.9559 70.8454%
2125 -28.7352 77.8932%
2140.62 -31.3149 63.4609%
2156.25 -32.6886 56.6206%
2171.88 -36.8536 39.2339%
2234.38 -36.1008 43.8608%
2250 -37.6482 38.2063%
2406.25 -36.4818 45.4089%
2421.88 -34.909 52.7868%
2437.5 -38.0827 40.4646%

-----
60.3122 #222
-----
312.5 -33.7536 30.6952%
375 -30.9272 46.8598%
734.375 -33.0919 38.5587%
750 -32.2883 42.5776%
2140.62 -35.2158 45.1617%
2156.25 -33.1842 54.1512%
2171.88 -35.8917 42.8309%
2187.5 -37.3958 37.2332%
2203.12 -35.3218 45.5964%
2218.75 -28.4149 81.8608%
2234.38 -26.7245 93.8636%
2250 -32.0894 61.6818%
2265.62 -39.867 30.2846%
2531.25 -39.8703 32.8209%
2546.88 -35.9067 47.2887%
2562.5 -38.8746 35.889%
3828.12 -40.4736 43.8525%

-----
62.3692 #223
-----
359.375 -31.0548 46.104%
375 -30.4048 49.6996%
828.125 -36.1594 30.5104%
1500 -37.2769 43.5822%
2218.75 -38.8959 33.2672%
2250 -38.8301 33.9768%

-----
65.6597 #224
-----
656.25 -35.3058 31.3616%
828.125 -32.4135 45.0984%
843.75 -35.3409 34.8233%
1406.25 -40.8507 30.1657%
1484.38 -38.3862 39.7703%

-----
62.0076 #225
-----
750 -34.6396 33.6428%

-----
83.3917 #226
-----
375 -34.5472 30.5845%
546.875 -34.3653 32.0901%
562.5 -32.5516 39.8313%
734.375 -32.694 40.2035%
750 -30.525 51.1592%
921.875 -37.1222 33.3894%
937.5 -34.2377 45.4409%
1125 -40.0347 32.7081%
1500 -38.0161 39.2969%
2234.38 -38.7509 31.143%
2250 -37.5596 35.5185%

-----
63.1901 #227
-----
734.375 -35.1102 30.8522%
890.625 -35.8977 33.9901%
937.5 -36.081 38.3113%

-----
58.4323 #228
-----
468.75 -33.4349 35.1396%
656.25 -27.997 64.0105%
671.875 -30.7352 48.3346%
875 -30.1429 58.3433%
890.625 -27.898 72.4452%
906.25 -36.4686 33.9628%
1500 -39.4976 34.4097%
3046.88 -39.8341 36.118%
3828.12 -44.8327 30.9043%

-----
67.4795 #229
-----
890.625 -33.1435 44.6604%
2203.12 -38.3176 30.6219%
2218.75 -35.8272 40.2032%
2250 -37.4212 34.5627%

-----
80.0185 #230
-----
437.5 -33.7816 31.4773%
546.875 -33.9565 33.7789%
562.5 -32.291 40.8762%
656.25 -30.721 48.3789%
671.875 -34.1345 32.7437%
875 -32.9002 44.2848%
890.625 -29.8008 60.3818%
1312.5 -38.996 38.7042%
1328.12 -39.7591 34.6364%
2203.12 -37.7037 33.6521%
2218.75 -34.6379 45.934%

-----
64.6638 #231
-----
437.5 -33.9937 30.9822%
546.875 -33.8866 33.7348%
562.5 -29.5932 53.2789%
656.25 -34.0646 33.3812%
875 -33.2569 42.7244%
890.625 -32.5404 46.889%
1312.5 -41.275 30.6528%
1328.12 -39.4265 35.5041%
1500 -39.0534 36.0527%
1765.62 -41.1327 34.7753%
2203.12 -37.4481 35.9597%
2218.75 -34.1072 49.6186%

-----
66.4696 #232
-----
546.875 -34.0379 32.8864%
562.5 -32.0283 41.3181%
640.625 -33.4479 34.5597%
656.25 -28.998 55.9007%
671.875 -34.4176 30.5547%
2203.12 -37.8179 35.9921%
2218.75 -34.9277 47.6541%

-----
83.0309 #233
-----

-----
68.3484 #234
-----
734.375 -34.3113 31.9578%
750 -32.3757 40.5304%
2234.38 -36.9044 41.2754%
2250 -37.9514 37.3993%
3359.38 -41.6818 31.9228%

-----
66.5586 #235
-----
359.375 -34.8428 30.4315%
375 -33.757 35.5337%
468.75 -34.2416 32.1709%
562.5 -33.7934 32.467%
750 -32.3769 40.7089%
1500 -39.3896 33.0922%

-----
64.2132 #236
-----
375 -33.2549 37.3514%
468.75 -32.9318 36.6193%
734.375 -31.3219 43.8793%
750 -28.1577 61.0428%
765.625 -34.0951 32.8837%
1484.38 -39.7289 31.318%
1500 -37.6923 39.082%
2015.62 -40.1071 38.624%
2078.12 -38.0943 40.9988%
2093.75 -37.6169 41.1122%
2109.38 -35.3997 48.8944%
2125 -32.9972 58.7501%
2140.62 -34.9285 49.7082%
2156.25 -39.6235 32.0042%
2218.75 -38.024 36.8272%
2234.38 -39.4647 32.3112%
2343.75 -39.7398 31.0742%
2437.5 -39.0497 37.878%
2625 -36.9679 41.3886%
2640.62 -37.4354 39.6209%
2718.75 -38.9513 35.4514%
2734.38 -39.4258 34.2538%
3546.88 -41.622 30.756%
3562.5 -41.0591 33.2027%
3578.12 -41.426 32.4929%
3625 -41.3937 33.4078%
3640.62 -41.0343 35.1582%
3656.25 -41.301 34.4177%

-----
70.9131 #237
-----
468.75 -32.7867 36.7842%
562.5 -33.616 31.1105%
734.375 -32.3538 38.6248%
750 -29.1291 54.8849%
1875 -41.6518 35.1491%
2156.25 -30.638 70.4887%
2171.88 -31.5095 65.5318%
2218.75 -39.0187 33.1053%
2468.75 -33.8437 56.7212%
2484.38 -34.8267 51.166%
2609.38 -37.7155 38.5076%
2625 -37.4407 39.7809%
3703.12 -40.1432 38.7382%
3718.75 -40.8939 37.1205%

-----
78.639 #238
-----
562.5 -31.3064 40.3934%
734.375 -32.9866 36.0787%
750 -29.2248 54.6722%
1484.38 -37.7388 38.6319%
1500 -39.3371 33.5837%
2140.62 -35.5268 46.9565%
2156.25 -31.8472 64.1031%
2171.88 -39.46 32.2541%
2234.38 -39.7351 31.1231%
2250 -39.1476 33.1035%
2437.5 -37.1354 45.1122%
2453.12 -32.6315 63.9733%
2468.75 -34.8528 52.2166%
2484.38 -36.8275 43.0785%
2609.38 -34.5111 51.4927%
2625 -38.2007 36.9412%
2765.62 -40.8109 30.0505%
3359.38 -41.6385 31.9227%

-----
74.2889 #239
-----
468.75 -33.6771 32.7983%
562.5 -31.0425 41.7152%
734.375 -32.3249 39.3683%
750 -28.7257 58.1258%
1484.38 -37.4812 39.5726%
1500 -38.0493 38.0285%
2203.12 -39.4541 31.2897%
2218.75 -36.9689 40.644%
2250 -37.585 38.7099%
2609.38 -35.7716 47.0572%
2625 -38.0364 38.4044%

-----
77.2025 #240
-----
562.5 -30.9382 42.5866%
734.375 -28.312 59.1982%
750 -26.3173 72.7194%
765.625 -33.8802 34.2961%
2218.75 -37.9363 37.0892%
2234.38 -39.2728 32.6671%

-----
84.8239 #241
-----
625 -25.1642 72.6737%
640.625 -24.5772 78.5083%
656.25 -30.2356 45.9314%
734.375 -34.0757 32.2376%
875 -36.4982 30.9676%
890.625 -35.7745 34.6429%
1109.38 -39.842 30.3347%
1328.12 -40.2688 30.8254%
1546.88 -35.7641 45.4271%
1562.5 -36.2217 44.5245%
1578.12 -39.2243 34.4166%
3375 -38.882 40.9677%
3390.62 -41.6661 31.1719%
3781.25 -44.3502 30.1476%

-----
67.3881 #242
-----
593.75 -27.295 57.8351%
609.375 -28.2698 51.8106%
734.375 -31.2594 43.7985%
750 -29.0661 56.0291%
1328.12 -37.3216 40.2313%
1484.38 -36.5296 42.1136%
1500 -28.4271 83.1486%
1515.62 -31.479 65.0405%
1531.25 -36.6068 41.3581%
1546.88 -36.9778 39.9677%
2593.75 -40.108 31.1796%
2609.38 -35.8202 47.356%
2625 -40.219 31.3837%

-----
55.1196 #243
-----
625 -29.8618 45.1155%
640.625 -32.7134 33.725%
1109.38 -35.8306 43.1162%
1125 -36.7863 39.7394%
1515.62 -34.9726 48.0843%
1531.25 -32.6528 58.0556%
1546.88 -32.3508 59.5412%
1562.5 -33.9433 53.0048%
1578.12 -36.7283 42.3743%
1593.75 -40.1566 30.2567%
2609.38 -38.5973 36.5283%
2625 -40.3952 30.6728%
3281.25 -42.0458 30.1783%

-----
54.2375 #244
-----
562.5 -33.0242 33.2581%
640.625 -27.6436 57.9171%
656.25 -23.8356 84.0809%
671.875 -31.9489 36.9395%
750 -29.9123 51.0645%
1312.5 -36.7976 41.3591%
1328.12 -36.7173 40.5576%
1640.62 -36.4065 42.2287%
1656.25 -33.4223 56.4787%
1671.88 -39.5483 33.5428%
3000 -40.2634 30.9134%
3046.88 -39.3572 34.5872%
3343.75 -41.2374 32.4867%
3703.12 -40.3319 36.9075%
3828.12 -44.4127 30.7772%

-----
67.778 #245
-----
546.875 -32.784 34.099%
562.5 -29.0106 51.6754%
640.625 -26.6042 64.3944%
656.25 -29.2963 49.8295%
671.875 -26.5261 65.0177%
1281.25 -38.8513 30.6278%
1296.88 -38.9663 31.9421%
1593.75 -34.7736 48.908%
1609.38 -32.0922 60.7021%

-----
75.8005 #246
-----
468.75 -33.8156 31.5125%
546.875 -33.2936 31.8784%
562.5 -28.5185 54.202%
625 -31.6428 37.2588%
640.625 -24.4442 78.9696%
656.25 -22.6001 94.2036%
671.875 -24.8959 75.5972%
1281.25 -36.7487 37.194%

-----
82.3861 #247
-----
375 -34.4733 32.9948%
468.75 -33.4371 33.4783%
546.875 -32.6417 34.672%
562.5 -28.5183 54.3273%
656.25 -26.077 68.5158%
671.875 -25.412 72.3725%
1000 -38.0787 30.3704%
2000 -41.5452 33.8876%
2218.75 -39.9534 31.0633%

-----
70.7265 #248
-----
328.125 -32.9273 35.7138%
343.75 -34.1432 32.0088%
468.75 -32.5204 37.9747%
546.875 -32.5947 35.1623%
562.5 -29.6215 48.8037%
656.25 -30.8371 42.4552%
671.875 -30.8597 41.823%
1640.62 -38.6262 33.0059%
1656.25 -37.7304 37.072%
1671.88 -36.107 44.1167%
2218.75 -39.9774 31.504%

-----
83.1275 #249
-----
468.75 -33.7697 33.0907%
562.5 -31.7436 38.7218%
1000 -32.504 52.6172%
1015.62 -33.1412 50.8543%
1328.12 -33.9538 50.4625%
1343.75 -31.5662 61.0448%
1656.25 -29.9509 72.5911%
1671.88 -26.8735 93.4315%
1687.5 -33.2227 56.9874%
1875 -41.1852 35.4839%
1890.62 -38.5565 44.8888%
2015.62 -42.738 30.7643%
3000 -40.3856 32.1994%
3015.62 -36.0444 48.7891%
3031.25 -40.1095 33.9759%
3343.75 -39.711 40.2915%
3375 -42.8293 30.1949%
3390.62 -38.2028 45.876%
3406.25 -42.2537 31.771%

-----
85.7641 #250
-----
375 -30.839 50.0617%
390.625 -34.7212 32.1482%
765.625 -32.2769 38.582%
953.125 -32.8108 49.6692%
968.75 -28.1566 74.3471%
984.375 -36.017 36.598%
1281.25 -32.1762 55.6716%
1296.88 -29.7078 70.8169%
1312.5 -36.9268 38.1944%
1609.38 -34.831 47.3877%
1625 -37.1426 38.0235%
2203.12 -38.1352 39.2342%
2218.75 -35.2965 50.4422%

-----
89.4239 #251
-----
796.875 -29.6936 52.3391%
812.5 -33.8276 34.9004%
953.125 -37.3532 31.4846%
968.75 -37.5921 30.5889%
1000 -30.3844 63.3425%
1015.62 -31.832 57.1377%
1281.25 -37.2253 34.5482%
1296.88 -35.1553 44.199%
1328.12 -32.035 58.6995%
1343.75 -31.4572 61.071%
1359.38 -35.0128 44.6694%
1656.25 -38.1055 35.7178%
1671.88 -37.2895 39.1122%
1687.5 -38.3308 35.848%
1703.12 -40.2682 30.2001%
2000 -41.6855 33.1553%
2203.12 -32.7769 62.0279%
2218.75 -31.0207 71.2284%
2234.38 -39.2845 35.281%
3000 -38.7584 38.1562%
3015.62 -37.1544 44.7529%
3031.25 -36.3673 48.2636%
3046.88 -38.2614 40.7506%

-----
65.5352 #252
-----
781.25 -34.3018 31.8478%
984.375 -33.5941 47.2814%
1000 -31.5008 58.2335%
1015.62 -31.6106 59.0299%
1031.25 -34.4731 45.7078%
1296.88 -38.6068 31.8402%
1312.5 -35.9336 42.4272%
1328.12 -36.1212 41.3424%
1343.75 -38.323 32.7602%
1359.38 -36.7943 38.1595%
1375 -35.4497 43.3194%
1656.25 -38.4947 34.7034%
1671.88 -36.3876 42.9073%
1687.5 -38.1238 36.9505%
2203.12 -34.7827 52.8656%
2218.75 -32.8858 61.6695%
2312.5 -40.2175 32.8612%
2328.12 -40.8336 31.3401%
3000 -38.0376 41.0686%
3015.62 -35.7034 51.1581%
3031.25 -37.6652 43.6547%
3046.88 -34.9112 54.7585%
3062.5 -39.396 37.0619%

-----
55.9521 #253
-----
421.875 -31.6552 40.5992%
437.5 -33.6791 32.9315%
937.5 -30.4408 62.0976%
953.125 -30.4818 61.6063%
1015.62 -37.8932 32.5862%
1031.25 -37.7259 33.1708%
1140.62 -38.355 32.2561%
1250 -30.1064 65.185%
1265.62 -29.1003 71.3587%
1562.5 -36.9163 40.1787%
1578.12 -32.9815 57.5405%
2515.62 -38.7675 38.8411%
2531.25 -38.5722 39.4374%
3781.25 -42.6396 35.7373%

-----
67.3831 #254
-----
656.25 -31.9001 38.2356%
796.875 -34.2802 33.4358%
968.75 -37.1942 32.5157%
984.375 -34.4523 43.7716%
1140.62 -38.2204 33.1254%
1203.12 -39.1912 30.0278%
1281.25 -36.5227 38.1577%
1296.88 -27.1644 87.8474%
1312.5 -25.6502 100.078%
1328.12 -31.6749 61.8653%
1343.75 -38.7812 32.0034%
3640.62 -42.7769 33.002%

-----
68.1507 #255
-----
390.625 -33.5813 34.5168%
1265.62 -32.3927 53.6086%
1281.25 -29.3284 71.1934%
1312.5 -28.9723 75.9479%
1328.12 -30.1868 68.7225%
1343.75 -38.5557 31.8745%

-----
73.7285 #256
-----
421.875 -30.7775 41.8519%
1312.5 -36.3251 39.7812%
1328.12 -37.061 36.9936%

-----
63.5411 #257
-----
546.875 -28.8015 51.0422%
562.5 -27.6234 57.8329%

-----
80.2656 #258
-----
546.875 -32.911 31.7718%
562.5 -28.9985 49.8863%
687.5 -33.3991 30.2309%
703.125 -31.4021 38.9466%
2187.5 -40.5072 31.8856%
3359.38 -40.8857 37.1644%

-----
70.7142 #259
-----
687.5 -33.0561 31.8734%
703.125 -28.3019 54.2531%

-----
61.8225 #260
-----
656.25 -33.946 30.4382%
671.875 -33.4457 31.601%
812.5 -35.1328 31.3377%
3031.25 -41.0349 32.9136%
3046.88 -40.9911 32.7322%

-----
65.8854 #261
-----
656.25 -32.0072 38.3061%
671.875 -33.0948 32.9459%
828.125 -31.4591 47.4529%
843.75 -33.4409 38.8301%

-----
63.1126 #262
-----
484.375 -33.0387 33.0949%
500 -32.9097 33.9897%
546.875 -31.2152 39.7241%
562.5 -31.1241 39.9675%
828.125 -34.0711 36.6534%

-----
65.0389 #263
-----
562.5 -31.9485 36.5472%
828.125 -32.8976 42.1881%

-----
91.4304 #264
-----
421.875 -33.0322 31.7186%
500 -33.4339 32.1842%
546.875 -33.4897 30.5349%
562.5 -31.1045 40.2717%
828.125 -35.1993 33.7151%

-----
64.4022 #265
-----
359.375 -33.8862 30.5992%
406.25 -31.5468 38.5171%
546.875 -31.7325 37.4364%
562.5 -30.2021 44.0414%
578.125 -32.2912 36.21%
593.75 -33.4847 32.6547%
828.125 -35.0927 34.768%
843.75 -34.991 35.3105%
1328.12 -38.2392 31.1973%
3625 -43.4211 30.1414%

-----
81.0034 #266
-----
406.25 -30.7567 41.4166%
421.875 -28.084 53.7568%
437.5 -33.3236 30.6023%
546.875 -30.2468 43.287%
562.5 -31.0884 38.9577%
828.125 -35.5951 32.4727%
1015.62 -34.435 43.9208%
1031.25 -34.426 44.4127%
1250 -37.6057 31.8413%
1656.25 -40.1587 31.9927%

-----
102.908 #267
-----
546.875 -28.4835 51.4235%
562.5 -28.0192 53.415%
796.875 -36.0525 30.3738%
812.5 -34.3283 37.6244%
828.125 -35.128 34.1541%
1656.25 -39.0551 35.5725%

-----
75.059 #268
-----
546.875 -28.5581 50.7645%
562.5 -29.2032 46.8593%
593.75 -31.3149 39.9354%
984.375 -36.7617 31.3886%
1000 -37.0218 32.3529%
1156.25 -34.5553 47.3818%
1171.88 -33.6404 51.6127%
1187.5 -34.9108 46.1818%
1203.12 -36.569 39.4086%
1218.75 -35.6368 43.0751%
1421.88 -37.413 38.2947%
1437.5 -34.67 49.8215%

-----
66.7829 #269
-----
843.75 -24.9543 88.6187%
859.375 -25.8565 83.4849%
1406.25 -33.6041 52.9066%
1421.88 -34.0102 52.1626%
1437.5 -34.8368 49.2091%
1453.12 -38.3204 35.5427%
1687.5 -40.2338 31.0553%
1703.12 -38.9633 35.761%
3093.75 -42.1163 30.6509%
3109.38 -40.6775 35.5755%
3703.12 -43.1105 31.357%

-----
69.4334 #270
-----
562.5 -31.3046 35.3498%
812.5 -34.1745 38.1312%
828.125 -27.8464 69.3809%
843.75 -33.6033 40.4088%
859.375 -34.1966 39.0638%
1093.75 -36.5603 38.2529%
1109.38 -34.6168 45.2188%
1359.38 -38.7871 32.6065%
1375 -30.9169 66.6058%
1390.62 -32.9518 55.7792%
1406.25 -38.0038 35.2124%
1656.25 -33.9105 56.8405%
1671.88 -37.5414 41.1952%
2250 -39.9654 32.7135%
3578.12 -42.1216 30.6151%
3640.62 -42.2045 32.7847%

-----
73.7124 #271
-----
562.5 -31.9282 32.2312%
812.5 -32.3166 46.2253%
828.125 -32.4952 45.2068%
1093.75 -32.942 53.1801%
1109.38 -32.6989 53.4216%
1359.38 -31.0705 66.0818%
1375 -27.4324 88.4723%
1390.62 -32.0075 61.0483%
1406.25 -37.6346 37.1871%
1640.62 -39.0849 36.7293%
1656.25 -36.288 46.9381%
2468.75 -40.6653 32.6261%
2859.38 -41.2858 33.2664%
3281.25 -41.0663 35.49%
3296.88 -41.2906 34.5899%

-----
63.3393 #272
-----
562.5 -26.4471 59.6361%
578.125 -31.7439 34.8436%
812.5 -35.066 35.1004%
828.125 -31.9782 47.7493%
1359.38 -38.8276 33.119%
1390.62 -33.6693 53.4123%
1406.25 -33.8605 52.7293%
1671.88 -39.8645 32.8244%
1687.5 -40.4152 30.6598%
2234.38 -40.0381 33.338%

-----
62.2774 #273
-----

-----
66.1936 #274
-----
578.125 -30.8389 37.6758%
1687.5 -40.5742 30.043%
1703.12 -32.7884 61.3871%
1718.75 -34.2316 55.3821%
1984.38 -39.2031 41.5724%
2000 -41.5987 33.6491%
2265.62 -39.3375 36.2497%
2546.88 -35.7137 51.5403%
2562.5 -34.4413 57.0741%
2578.12 -40.6166 33.1791%
3671.88 -36.4579 53.404%
3687.5 -29.904 87.5252%
3703.12 -31.8438 76.7349%

-----
62.8602 #275
-----
546.875 -26.2743 52.6205%
562.5 -28.631 39.4976%
1906.25 -37.5365 40.2378%
1921.88 -36.289 45.3074%
2453.12 -39.0122 31.0399%
2468.75 -34.9644 46.2803%
3562.5 -39.3609 32.1238%
3828.12 -39.2976 41.5832%
3843.75 -39.3865 34.6922%

-----
61.1833 #276
-----
2515.62 -35.4627 31.6387%
3656.25 -36.6395 30.9925%

-----
63.3606 #277
-----

-----
69.9167 #278
-----

-----
70.5213 #279
-----

-----
81.0295 #280
-----

-----
81.8102 #281
-----

-----
71.8345 #282
-----

-----
59.6001 #283
-----

-----
76.4423 #284
-----
